simulation/modelsim/msim_transcript
# Reading C:/altera/13.0sp1/modelsim_ase/tcl/vsim/pref.tcl 
# do projetoProcessador_run_msim_rtl_verilog.do 
# if {[file exists rtl_work]} {
# 	vdel -lib rtl_work -all
# }
# vlib rtl_work
# vmap work rtl_work
# Copying C:\altera\13.0sp1\modelsim_ase\win32aloem/../modelsim.ini to modelsim.ini
# Modifying modelsim.ini
# ** Warning: Copied C:\altera\13.0sp1\modelsim_ase\win32aloem/../modelsim.ini to modelsim.ini.
#          Updated modelsim.ini.
# 
# vlog -vlog01compat -work work +incdir+C:/pastaX/projetoProcessador {C:/pastaX/projetoProcessador/projetoProcessador.v}
# Model Technology ModelSim ALTERA vlog 10.1d Compiler 2012.11 Nov  2 2012
# -- Compiling module projetoProcessador
# -- Compiling module dec3to8
# -- Compiling module regW
# -- Compiling module pc_counter
# -- Compiling module regInstr
# -- Compiling module regn
# -- Compiling module Alu
# -- Compiling module barrel
# 
# Top level modules:
# 	projetoProcessador
# 	regInstr
# 	barrel
# vlog -vlog01compat -work work +incdir+C:/pastaX/projetoProcessador {C:/pastaX/projetoProcessador/memoriaPrincipal.v}
# Model Technology ModelSim ALTERA vlog 10.1d Compiler 2012.11 Nov  2 2012
# -- Compiling module memoriaPrincipal
# 
# Top level modules:
# 	memoriaPrincipal
# vlog -vlog01compat -work work +incdir+C:/pastaX/projetoProcessador {C:/pastaX/projetoProcessador/instr_memory.v}
# Model Technology ModelSim ALTERA vlog 10.1d Compiler 2012.11 Nov  2 2012
# -- Compiling module instr_memory
# 
# Top level modules:
# 	instr_memory
# 
# vlog -vlog01compat -work work +incdir+C:/pastaX/projetoProcessador {C:/pastaX/projetoProcessador/projetoProcessador_tb.v}
# Model Technology ModelSim ALTERA vlog 10.1d Compiler 2012.11 Nov  2 2012
# -- Compiling module projetoProcessador_tb
# 
# Top level modules:
# 	projetoProcessador_tb
# 
# vsim -t 1ps -L altera_ver -L lpm_ver -L sgate_ver -L altera_mf_ver -L altera_lnsim_ver -L cycloneii_ver -L rtl_work -L work -voptargs="+acc"  projetoProcessador_tb
# vsim -L altera_ver -L lpm_ver -L sgate_ver -L altera_mf_ver -L altera_lnsim_ver -L cycloneii_ver -L rtl_work -L work -voptargs=\"+acc\" -t 1ps projetoProcessador_tb 
# Loading work.projetoProcessador_tb
# Loading work.projetoProcessador
# Loading work.dec3to8
# Loading work.instr_memory
# Loading altera_mf_ver.altsyncram
# Loading altera_mf_ver.ALTERA_DEVICE_FAMILIES
# Loading altera_mf_ver.ALTERA_MF_MEMORY_INITIALIZATION
# Loading work.memoriaPrincipal
# Loading work.regn
# Loading work.pc_counter
# Loading work.regW
# Loading work.Alu
# 
# add wave *
# view structure
# .main_pane.structure.interior.cs.body.struct
# view signals
# .main_pane.objects.interior.cs.body.tree
# run -all
# BusWires=0000000000000000
# Testa mv
# Time=650 clock=1 reset=1 run=1 done=0 Din=0 regDestino=xxxxxxxxxxxxxxxx tstepQ=0 instrucao=xxxxxxxxxxxxxxxx BusWires =0000000000000000 endereco=xxxxxxxxxxxxxxxx addrIn=1 regRX=xxx
# Time=700 clock=0 reset=1 run=1 done=0 Din=0 regDestino=xxxxxxxxxxxxxxxx tstepQ=0 instrucao=xxxxxxxxxxxxxxxx BusWires =0000000000000000 endereco=xxxxxxxxxxxxxxxx addrIn=1 regRX=xxx
# BusWires=0000000000000001
# Time=750 clock=1 reset=1 run=1 done=0 Din=0 regDestino=xxxxxxxxxxxxxxxx tstepQ=1 instrucao=xxxxxxxxxxxxxxxx BusWires =0000000000000001 endereco=0000000000000000 addrIn=0 regRX=xxx
# Time=800 clock=0 reset=1 run=1 done=0 Din=0 regDestino=xxxxxxxxxxxxxxxx tstepQ=1 instrucao=xxxxxxxxxxxxxxxx BusWires =0000000000000001 endereco=0000000000000000 addrIn=0 regRX=xxx
# BusWires=0000000000000001
# Time=850 clock=1 reset=1 run=1 done=0 Din=0 regDestino=xxxxxxxxxxxxxxxx tstepQ=10 instrucao=xxxxxxxxxxxxxxxx BusWires =0000000000000001 endereco=0000000000000000 addrIn=0 regRX=xxx
# Time=900 clock=0 reset=1 run=1 done=0 Din=0 regDestino=xxxxxxxxxxxxxxxx tstepQ=10 instrucao=xxxxxxxxxxxxxxxx BusWires =0000000000000001 endereco=0000000000000000 addrIn=0 regRX=xxx
# Time=950 clock=1 reset=1 run=1 done=0 Din=0 regDestino=xxxxxxxxxxxxxxxx tstepQ=11 instrucao=xxxxxxxxxxxxxxxx BusWires =0000000000000001 endereco=0000000000000000 addrIn=0 regRX=xxx
# Time=1000 clock=0 reset=1 run=1 done=0 Din=0 regDestino=xxxxxxxxxxxxxxxx tstepQ=11 instrucao=xxxxxxxxxxxxxxxx BusWires =0000000000000001 endereco=0000000000000000 addrIn=0 regRX=xxx
# Time=1050 clock=1 reset=1 run=1 done=0 Din=0 regDestino=xxxxxxxxxxxxxxxx tstepQ=100 instrucao=xxxxxxxxxxxxxxxx BusWires =0000000000000001 endereco=0000000000000000 addrIn=0 regRX=xxx
# Time=1100 clock=0 reset=1 run=1 done=0 Din=0 regDestino=xxxxxxxxxxxxxxxx tstepQ=100 instrucao=xxxxxxxxxxxxxxxx BusWires =0000000000000001 endereco=0000000000000000 addrIn=0 regRX=xxx
# Time=1150 clock=1 reset=1 run=1 done=0 Din=0 regDestino=xxxxxxxxxxxxxxxx tstepQ=101 instrucao=xxxxxxxxxxxxxxxx BusWires =0000000000000001 endereco=0000000000000000 addrIn=0 regRX=xxx
# Time=1200 clock=0 reset=1 run=1 done=0 Din=0 regDestino=xxxxxxxxxxxxxxxx tstepQ=101 instrucao=xxxxxxxxxxxxxxxx BusWires =0000000000000001 endereco=0000000000000000 addrIn=0 regRX=xxx
# Time=1250 clock=1 reset=1 run=1 done=0 Din=0 regDestino=xxxxxxxxxxxxxxxx tstepQ=0 instrucao=xxxxxxxxxxxxxxxx BusWires =0000000000000001 endereco=0000000000000000 addrIn=1 regRX=xxx
# Time=1300 clock=0 reset=1 run=1 done=0 Din=0 regDestino=xxxxxxxxxxxxxxxx tstepQ=0 instrucao=xxxxxxxxxxxxxxxx BusWires =0000000000000001 endereco=0000000000000000 addrIn=1 regRX=xxx
# BusWires=0000000000000010
# Time=1350 clock=1 reset=1 run=1 done=0 Din=0 regDestino=xxxxxxxxxxxxxxxx tstepQ=1 instrucao=xxxxxxxxxxxxxxxx BusWires =0000000000000010 endereco=0000000000000001 addrIn=0 regRX=xxx
# Time=1400 clock=0 reset=1 run=1 done=0 Din=0 regDestino=xxxxxxxxxxxxxxxx tstepQ=1 instrucao=xxxxxxxxxxxxxxxx BusWires =0000000000000010 endereco=0000000000000001 addrIn=0 regRX=xxx
# BusWires=0000000000000010
# Time=1450 clock=1 reset=1 run=1 done=0 Din=0 regDestino=xxxxxxxxxxxxxxxx tstepQ=10 instrucao=xxxxxxxxxxxxxxxx BusWires =0000000000000010 endereco=0000000000000001 addrIn=0 regRX=xxx
# Time=1500 clock=0 reset=1 run=1 done=0 Din=0 regDestino=xxxxxxxxxxxxxxxx tstepQ=10 instrucao=xxxxxxxxxxxxxxxx BusWires =0000000000000010 endereco=0000000000000001 addrIn=0 regRX=xxx
# r0=xxxxxxxxxxxxxxxx
# Time=1550 clock=1 reset=1 run=1 done=1 Din=0 regDestino=xxxxxxxxxxxxxxxx tstepQ=11 instrucao=0001000000000100 BusWires =xxxxxxxxxxxxxxxx endereco=0000000000000001 addrIn=0 regRX=000
# Time=1600 clock=0 reset=1 run=1 done=1 Din=0 regDestino=xxxxxxxxxxxxxxxx tstepQ=11 instrucao=0001000000000100 BusWires =xxxxxxxxxxxxxxxx endereco=0000000000000001 addrIn=0 regRX=000
# BusWires=0000000000000010
# Time=1650 clock=1 reset=1 run=1 done=0 Din=0 regDestino=xxxxxxxxxxxxxxxx tstepQ=0 instrucao=0001000000000100 BusWires =0000000000000010 endereco=0000000000000001 addrIn=1 regRX=000
# Time=1700 clock=0 reset=1 run=1 done=0 Din=0 regDestino=xxxxxxxxxxxxxxxx tstepQ=0 instrucao=0001000000000100 BusWires =0000000000000010 endereco=0000000000000001 addrIn=1 regRX=000
# BusWires=0000000000000011
# Time=1750 clock=1 reset=1 run=1 done=0 Din=0 regDestino=xxxxxxxxxxxxxxxx tstepQ=1 instrucao=0001000000000100 BusWires =0000000000000011 endereco=0000000000000010 addrIn=0 regRX=000
# Time=1800 clock=0 reset=1 run=1 done=0 Din=0 regDestino=xxxxxxxxxxxxxxxx tstepQ=1 instrucao=0001000000000100 BusWires =0000000000000011 endereco=0000000000000010 addrIn=0 regRX=000
# BusWires=0000000000000011
# Time=1850 clock=1 reset=1 run=1 done=0 Din=0 regDestino=xxxxxxxxxxxxxxxx tstepQ=10 instrucao=0001000000000100 BusWires =0000000000000011 endereco=0000000000000010 addrIn=0 regRX=000
# Time=1900 clock=0 reset=1 run=1 done=0 Din=0 regDestino=xxxxxxxxxxxxxxxx tstepQ=10 instrucao=0001000000000100 BusWires =0000000000000011 endereco=0000000000000010 addrIn=0 regRX=000
# Time=1950 clock=1 reset=1 run=1 done=0 Din=0 regDestino=xxxxxxxxxxxxxxxx tstepQ=11 instrucao=1000001000000000 BusWires =xxxxxxxxxxxxxxxx endereco=0000000000000010 addrIn=1 regRX=001
# Time=2000 clock=0 reset=1 run=1 done=0 Din=0 regDestino=xxxxxxxxxxxxxxxx tstepQ=11 instrucao=1000001000000000 BusWires =xxxxxxxxxxxxxxxx endereco=0000000000000010 addrIn=1 regRX=001
# Time=2050 clock=1 reset=1 run=1 done=0 Din=0 regDestino=xxxxxxxxxxxxxxxx tstepQ=100 instrucao=1000001000000000 BusWires =xxxxxxxxxxxxxxxx endereco=xxxxxxxxxxxxxxxx addrIn=0 regRX=001
# Time=2100 clock=0 reset=1 run=1 done=0 Din=0 regDestino=xxxxxxxxxxxxxxxx tstepQ=100 instrucao=1000001000000000 BusWires =xxxxxxxxxxxxxxxx endereco=xxxxxxxxxxxxxxxx addrIn=0 regRX=001
# Time=2150 clock=1 reset=1 run=1 done=1 Din=0 regDestino=xxxxxxxxxxxxxxxx tstepQ=101 instrucao=1000001000000000 BusWires =xxxxxxxxxxxxxxxx endereco=xxxxxxxxxxxxxxxx addrIn=0 regRX=001
# Time=2200 clock=0 reset=1 run=1 done=1 Din=0 regDestino=xxxxxxxxxxxxxxxx tstepQ=101 instrucao=1000001000000000 BusWires =xxxxxxxxxxxxxxxx endereco=xxxxxxxxxxxxxxxx addrIn=0 regRX=001
# BusWires=0000000000000011
# Time=2250 clock=1 reset=1 run=1 done=0 Din=0 regDestino=xxxxxxxxxxxxxxxx tstepQ=0 instrucao=1000001000000000 BusWires =0000000000000011 endereco=xxxxxxxxxxxxxxxx addrIn=1 regRX=001
# Time=2300 clock=0 reset=1 run=1 done=0 Din=0 regDestino=xxxxxxxxxxxxxxxx tstepQ=0 instrucao=1000001000000000 BusWires =0000000000000011 endereco=xxxxxxxxxxxxxxxx addrIn=1 regRX=001
# BusWires=0000000000000100
# Time=2350 clock=1 reset=1 run=1 done=0 Din=0 regDestino=xxxxxxxxxxxxxxxx tstepQ=1 instrucao=1000001000000000 BusWires =0000000000000100 endereco=0000000000000011 addrIn=0 regRX=001
# Time=2400 clock=0 reset=1 run=1 done=0 Din=0 regDestino=xxxxxxxxxxxxxxxx tstepQ=1 instrucao=1000001000000000 BusWires =0000000000000100 endereco=0000000000000011 addrIn=0 regRX=001
# BusWires=0000000000000100
# Time=2450 clock=1 reset=1 run=1 done=0 Din=0 regDestino=xxxxxxxxxxxxxxxx tstepQ=10 instrucao=1000001000000000 BusWires =0000000000000100 endereco=0000000000000011 addrIn=0 regRX=001
# Time=2500 clock=0 reset=1 run=1 done=0 Din=0 regDestino=xxxxxxxxxxxxxxxx tstepQ=10 instrucao=1000001000000000 BusWires =0000000000000100 endereco=0000000000000011 addrIn=0 regRX=001
# Time=2550 clock=1 reset=1 run=1 done=0 Din=0 regDestino=xxxxxxxxxxxxxxxx tstepQ=11 instrucao=xxxxxxxxxxxxxxxx BusWires =0000000000000100 endereco=0000000000000011 addrIn=0 regRX=xxx
# Time=2600 clock=0 reset=1 run=1 done=0 Din=0 regDestino=xxxxxxxxxxxxxxxx tstepQ=11 instrucao=xxxxxxxxxxxxxxxx BusWires =0000000000000100 endereco=0000000000000011 addrIn=0 regRX=xxx
# Time=2650 clock=1 reset=1 run=1 done=0 Din=0 regDestino=xxxxxxxxxxxxxxxx tstepQ=100 instrucao=xxxxxxxxxxxxxxxx BusWires =0000000000000100 endereco=0000000000000011 addrIn=0 regRX=xxx
# Time=2700 clock=0 reset=1 run=1 done=0 Din=0 regDestino=xxxxxxxxxxxxxxxx tstepQ=100 instrucao=xxxxxxxxxxxxxxxx BusWires =0000000000000100 endereco=0000000000000011 addrIn=0 regRX=xxx
# Time=2750 clock=1 reset=1 run=1 done=0 Din=0 regDestino=xxxxxxxxxxxxxxxx tstepQ=101 instrucao=xxxxxxxxxxxxxxxx BusWires =0000000000000100 endereco=0000000000000011 addrIn=0 regRX=xxx
# Time=2800 clock=0 reset=1 run=1 done=0 Din=0 regDestino=xxxxxxxxxxxxxxxx tstepQ=101 instrucao=xxxxxxxxxxxxxxxx BusWires =0000000000000100 endereco=0000000000000011 addrIn=0 regRX=xxx
# Time=2850 clock=1 reset=1 run=1 done=0 Din=0 regDestino=xxxxxxxxxxxxxxxx tstepQ=0 instrucao=xxxxxxxxxxxxxxxx BusWires =0000000000000100 endereco=0000000000000011 addrIn=1 regRX=xxx
# Time=2900 clock=0 reset=1 run=1 done=0 Din=0 regDestino=xxxxxxxxxxxxxxxx tstepQ=0 instrucao=xxxxxxxxxxxxxxxx BusWires =0000000000000100 endereco=0000000000000011 addrIn=1 regRX=xxx
# BusWires=0000000000000101
# Time=2950 clock=1 reset=1 run=1 done=0 Din=0 regDestino=xxxxxxxxxxxxxxxx tstepQ=1 instrucao=xxxxxxxxxxxxxxxx BusWires =0000000000000101 endereco=0000000000000100 addrIn=0 regRX=xxx
# Time=3000 clock=0 reset=1 run=1 done=0 Din=0 regDestino=xxxxxxxxxxxxxxxx tstepQ=1 instrucao=xxxxxxxxxxxxxxxx BusWires =0000000000000101 endereco=0000000000000100 addrIn=0 regRX=xxx
# BusWires=0000000000000101
# Time=3050 clock=1 reset=1 run=1 done=0 Din=0 regDestino=xxxxxxxxxxxxxxxx tstepQ=10 instrucao=xxxxxxxxxxxxxxxx BusWires =0000000000000101 endereco=0000000000000100 addrIn=0 regRX=xxx
# Time=3100 clock=0 reset=1 run=1 done=0 Din=0 regDestino=xxxxxxxxxxxxxxxx tstepQ=10 instrucao=xxxxxxxxxxxxxxxx BusWires =0000000000000101 endereco=0000000000000100 addrIn=0 regRX=xxx
# Time=3150 clock=1 reset=1 run=1 done=0 Din=0 regDestino=xxxxxxxxxxxxxxxx tstepQ=11 instrucao=1010000000000001 BusWires =xxxxxxxxxxxxxxxx endereco=0000000000000100 addrIn=1 regRX=000
# Time=3200 clock=0 reset=1 run=1 done=0 Din=0 regDestino=xxxxxxxxxxxxxxxx tstepQ=11 instrucao=1010000000000001 BusWires =xxxxxxxxxxxxxxxx endereco=0000000000000100 addrIn=1 regRX=000
# Time=3250 clock=1 reset=1 run=1 done=1 Din=0 regDestino=xxxxxxxxxxxxxxxx tstepQ=100 instrucao=1010000000000001 BusWires =xxxxxxxxxxxxxxxx endereco=xxxxxxxxxxxxxxxx addrIn=0 regRX=000
# Time=3300 clock=0 reset=1 run=1 done=1 Din=0 regDestino=xxxxxxxxxxxxxxxx tstepQ=100 instrucao=1010000000000001 BusWires =xxxxxxxxxxxxxxxx endereco=xxxxxxxxxxxxxxxx addrIn=0 regRX=000
# BusWires=0000000000000101
# BusWires=0000000000000101
# Time=3350 clock=1 reset=1 run=1 done=0 Din=0 regDestino=xxxxxxxxxxxxxxxx tstepQ=0 instrucao=1010000000000001 BusWires =0000000000000101 endereco=xxxxxxxxxxxxxxxx addrIn=1 regRX=000
# Time=3400 clock=0 reset=1 run=1 done=0 Din=0 regDestino=xxxxxxxxxxxxxxxx tstepQ=0 instrucao=1010000000000001 BusWires =0000000000000101 endereco=xxxxxxxxxxxxxxxx addrIn=1 regRX=000
# BusWires=0000000000000110
# Time=3450 clock=1 reset=1 run=1 done=0 Din=0 regDestino=xxxxxxxxxxxxxxxx tstepQ=1 instrucao=1010000000000001 BusWires =0000000000000110 endereco=0000000000000101 addrIn=0 regRX=000
# Time=3500 clock=0 reset=1 run=1 done=0 Din=0 regDestino=xxxxxxxxxxxxxxxx tstepQ=1 instrucao=1010000000000001 BusWires =0000000000000110 endereco=0000000000000101 addrIn=0 regRX=000
# Time=3550 clock=1 reset=1 run=1 done=0 Din=0 regDestino=xxxxxxxxxxxxxxxx tstepQ=10 instrucao=1010000000000001 BusWires =0000000000000110 endereco=0000000000000101 addrIn=0 regRX=000
# Time=3600 clock=0 reset=1 run=1 done=0 Din=0 regDestino=xxxxxxxxxxxxxxxx tstepQ=10 instrucao=1010000000000001 BusWires =0000000000000110 endereco=0000000000000101 addrIn=0 regRX=000
# Time=3650 clock=1 reset=1 run=1 done=0 Din=0 regDestino=xxxxxxxxxxxxxxxx tstepQ=11 instrucao=xxxxxxxxxxxxxxxx BusWires =0000000000000110 endereco=0000000000000101 addrIn=0 regRX=xxx
# Time=3700 clock=0 reset=1 run=1 done=0 Din=0 regDestino=xxxxxxxxxxxxxxxx tstepQ=11 instrucao=xxxxxxxxxxxxxxxx BusWires =0000000000000110 endereco=0000000000000101 addrIn=0 regRX=xxx
# Time=3750 clock=1 reset=1 run=1 done=0 Din=0 regDestino=xxxxxxxxxxxxxxxx tstepQ=100 instrucao=xxxxxxxxxxxxxxxx BusWires =0000000000000110 endereco=0000000000000101 addrIn=0 regRX=xxx
# Time=3800 clock=0 reset=1 run=1 done=0 Din=0 regDestino=xxxxxxxxxxxxxxxx tstepQ=100 instrucao=xxxxxxxxxxxxxxxx BusWires =0000000000000110 endereco=0000000000000101 addrIn=0 regRX=xxx
# Time=3850 clock=1 reset=1 run=1 done=0 Din=0 regDestino=xxxxxxxxxxxxxxxx tstepQ=101 instrucao=xxxxxxxxxxxxxxxx BusWires =0000000000000110 endereco=0000000000000101 addrIn=0 regRX=xxx
# Time=3900 clock=0 reset=1 run=1 done=0 Din=0 regDestino=xxxxxxxxxxxxxxxx tstepQ=101 instrucao=xxxxxxxxxxxxxxxx BusWires =0000000000000110 endereco=0000000000000101 addrIn=0 regRX=xxx
# Time=3950 clock=1 reset=1 run=1 done=0 Din=0 regDestino=xxxxxxxxxxxxxxxx tstepQ=0 instrucao=xxxxxxxxxxxxxxxx BusWires =0000000000000110 endereco=0000000000000101 addrIn=1 regRX=xxx
# Time=4000 clock=0 reset=1 run=1 done=0 Din=0 regDestino=xxxxxxxxxxxxxxxx tstepQ=0 instrucao=xxxxxxxxxxxxxxxx BusWires =0000000000000110 endereco=0000000000000101 addrIn=1 regRX=xxx
# BusWires=0000000000000111
# Time=4050 clock=1 reset=1 run=1 done=0 Din=0 regDestino=xxxxxxxxxxxxxxxx tstepQ=1 instrucao=xxxxxxxxxxxxxxxx BusWires =0000000000000111 endereco=0000000000000110 addrIn=0 regRX=xxx
# Time=4100 clock=0 reset=1 run=1 done=0 Din=0 regDestino=xxxxxxxxxxxxxxxx tstepQ=1 instrucao=xxxxxxxxxxxxxxxx BusWires =0000000000000111 endereco=0000000000000110 addrIn=0 regRX=xxx
# Time=4150 clock=1 reset=1 run=1 done=0 Din=0 regDestino=xxxxxxxxxxxxxxxx tstepQ=10 instrucao=xxxxxxxxxxxxxxxx BusWires =0000000000000111 endereco=0000000000000110 addrIn=0 regRX=xxx
# Time=4200 clock=0 reset=1 run=1 done=0 Din=0 regDestino=xxxxxxxxxxxxxxxx tstepQ=10 instrucao=xxxxxxxxxxxxxxxx BusWires =0000000000000111 endereco=0000000000000110 addrIn=0 regRX=xxx
# r0=xxxxxxxxxxxxxxxx
# Time=4250 clock=1 reset=1 run=1 done=1 Din=0 regDestino=xxxxxxxxxxxxxxxx tstepQ=11 instrucao=0001010000000010 BusWires =xxxxxxxxxxxxxxxx endereco=0000000000000110 addrIn=0 regRX=010
# Time=4300 clock=0 reset=1 run=1 done=1 Din=0 regDestino=xxxxxxxxxxxxxxxx tstepQ=11 instrucao=0001010000000010 BusWires =xxxxxxxxxxxxxxxx endereco=0000000000000110 addrIn=0 regRX=010
# BusWires=0000000000000111
# Time=4350 clock=1 reset=1 run=1 done=0 Din=0 regDestino=xxxxxxxxxxxxxxxx tstepQ=0 instrucao=0001010000000010 BusWires =0000000000000111 endereco=0000000000000110 addrIn=1 regRX=010
# Time=4400 clock=0 reset=1 run=1 done=0 Din=0 regDestino=xxxxxxxxxxxxxxxx tstepQ=0 instrucao=0001010000000010 BusWires =0000000000000111 endereco=0000000000000110 addrIn=1 regRX=010
# BusWires=0000000000001000
# Time=4450 clock=1 reset=1 run=1 done=0 Din=0 regDestino=xxxxxxxxxxxxxxxx tstepQ=1 instrucao=0001010000000010 BusWires =0000000000001000 endereco=0000000000000111 addrIn=0 regRX=010
# Time=4500 clock=0 reset=1 run=1 done=0 Din=0 regDestino=xxxxxxxxxxxxxxxx tstepQ=1 instrucao=0001010000000010 BusWires =0000000000001000 endereco=0000000000000111 addrIn=0 regRX=010
# Time=4550 clock=1 reset=1 run=1 done=0 Din=0 regDestino=xxxxxxxxxxxxxxxx tstepQ=10 instrucao=0001010000000010 BusWires =0000000000001000 endereco=0000000000000111 addrIn=0 regRX=010
# Time=4600 clock=0 reset=1 run=1 done=0 Din=0 regDestino=xxxxxxxxxxxxxxxx tstepQ=10 instrucao=0001010000000010 BusWires =0000000000001000 endereco=0000000000000111 addrIn=0 regRX=010
# Time=4650 clock=1 reset=1 run=1 done=0 Din=0 regDestino=xxxxxxxxxxxxxxxx tstepQ=11 instrucao=1101010000000001 BusWires =xxxxxxxxxxxxxxxx endereco=0000000000000111 addrIn=0 regRX=010
# Time=4700 clock=0 reset=1 run=1 done=0 Din=0 regDestino=xxxxxxxxxxxxxxxx tstepQ=11 instrucao=1101010000000001 BusWires =xxxxxxxxxxxxxxxx endereco=0000000000000111 addrIn=0 regRX=010
# ra_out: xxxxxxxxxxxxxxxx & BusW: xxxxxxxxxxxxxxxx
# Time=4750 clock=1 reset=1 run=1 done=0 Din=0 regDestino=xxxxxxxxxxxxxxxx tstepQ=100 instrucao=1101010000000001 BusWires =xxxxxxxxxxxxxxxx endereco=0000000000000111 addrIn=0 regRX=010
# Time=4800 clock=0 reset=1 run=1 done=0 Din=0 regDestino=xxxxxxxxxxxxxxxx tstepQ=100 instrucao=1101010000000001 BusWires =xxxxxxxxxxxxxxxx endereco=0000000000000111 addrIn=0 regRX=010
# Time=4850 clock=1 reset=1 run=1 done=1 Din=0 regDestino=xxxxxxxxxxxxxxxx tstepQ=101 instrucao=1101010000000001 BusWires =xxxxxxxxxxxxxxxx endereco=0000000000000111 addrIn=0 regRX=010
# Time=4900 clock=0 reset=1 run=1 done=1 Din=0 regDestino=xxxxxxxxxxxxxxxx tstepQ=101 instrucao=1101010000000001 BusWires =xxxxxxxxxxxxxxxx endereco=0000000000000111 addrIn=0 regRX=010
# BusWires=0000000000001000
# Time=4950 clock=1 reset=1 run=1 done=0 Din=0 regDestino=xxxxxxxxxxxxxxxx tstepQ=0 instrucao=1101010000000001 BusWires =0000000000001000 endereco=0000000000000111 addrIn=1 regRX=010
# Time=5000 clock=0 reset=1 run=1 done=0 Din=0 regDestino=xxxxxxxxxxxxxxxx tstepQ=0 instrucao=1101010000000001 BusWires =0000000000001000 endereco=0000000000000111 addrIn=1 regRX=010
# BusWires=0000000000001001
# Time=5050 clock=1 reset=1 run=1 done=0 Din=0 regDestino=xxxxxxxxxxxxxxxx tstepQ=1 instrucao=1101010000000001 BusWires =0000000000001001 endereco=0000000000001000 addrIn=0 regRX=010
# Time=5100 clock=0 reset=1 run=1 done=0 Din=0 regDestino=xxxxxxxxxxxxxxxx tstepQ=1 instrucao=1101010000000001 BusWires =0000000000001001 endereco=0000000000001000 addrIn=0 regRX=010
# Time=5150 clock=1 reset=1 run=1 done=0 Din=0 regDestino=xxxxxxxxxxxxxxxx tstepQ=10 instrucao=1101010000000001 BusWires =0000000000001001 endereco=0000000000001000 addrIn=0 regRX=010
# Time=5200 clock=0 reset=1 run=1 done=0 Din=0 regDestino=xxxxxxxxxxxxxxxx tstepQ=10 instrucao=1101010000000001 BusWires =0000000000001001 endereco=0000000000001000 addrIn=0 regRX=010
# r0=xxxxxxxxxxxxxxxx
# Time=5250 clock=1 reset=1 run=1 done=1 Din=0 regDestino=xxxxxxxxxxxxxxxx tstepQ=11 instrucao=0000000000000000 BusWires =xxxxxxxxxxxxxxxx endereco=0000000000001000 addrIn=0 regRX=000
# Time=5300 clock=0 reset=1 run=1 done=1 Din=0 regDestino=xxxxxxxxxxxxxxxx tstepQ=11 instrucao=0000000000000000 BusWires =xxxxxxxxxxxxxxxx endereco=0000000000001000 addrIn=0 regRX=000
# BusWires=0000000000001001
# Time=5350 clock=1 reset=1 run=1 done=0 Din=0 regDestino=xxxxxxxxxxxxxxxx tstepQ=0 instrucao=0000000000000000 BusWires =0000000000001001 endereco=0000000000001000 addrIn=1 regRX=000
# Time=5400 clock=0 reset=1 run=1 done=0 Din=0 regDestino=xxxxxxxxxxxxxxxx tstepQ=0 instrucao=0000000000000000 BusWires =0000000000001001 endereco=0000000000001000 addrIn=1 regRX=000
# BusWires=0000000000001010
# Time=5450 clock=1 reset=1 run=1 done=0 Din=0 regDestino=xxxxxxxxxxxxxxxx tstepQ=1 instrucao=0000000000000000 BusWires =0000000000001010 endereco=0000000000001001 addrIn=0 regRX=000
# Time=5500 clock=0 reset=1 run=1 done=0 Din=0 regDestino=xxxxxxxxxxxxxxxx tstepQ=1 instrucao=0000000000000000 BusWires =0000000000001010 endereco=0000000000001001 addrIn=0 regRX=000
# Time=5550 clock=1 reset=1 run=1 done=0 Din=0 regDestino=xxxxxxxxxxxxxxxx tstepQ=10 instrucao=0000000000000000 BusWires =0000000000001010 endereco=0000000000001001 addrIn=0 regRX=000
# Time=5600 clock=0 reset=1 run=1 done=0 Din=0 regDestino=xxxxxxxxxxxxxxxx tstepQ=10 instrucao=0000000000000000 BusWires =0000000000001010 endereco=0000000000001001 addrIn=0 regRX=000
# Testa load
# r0=xxxxxxxxxxxxxxxx
# Time=5700 clock=1 reset=1 run=1 done=1 Din=1 regDestino=xxxxxxxxxxxxxxxx tstepQ=11 instrucao=0000000000000000 BusWires =xxxxxxxxxxxxxxxx endereco=0000000000001001 saidaROM=0000000000000000 rx=0
# Time=5750 clock=0 reset=1 run=1 done=1 Din=1 regDestino=xxxxxxxxxxxxxxxx tstepQ=11 instrucao=0000000000000000 BusWires =xxxxxxxxxxxxxxxx endereco=0000000000001001 saidaROM=0000000000000000 rx=0
# BusWires=0000000000001010
# Time=5800 clock=1 reset=1 run=1 done=0 Din=1 regDestino=xxxxxxxxxxxxxxxx tstepQ=0 instrucao=0000000000000000 BusWires =0000000000001010 endereco=0000000000001001 saidaROM=0000000000000000 rx=0
# Time=5850 clock=0 reset=1 run=1 done=0 Din=1 regDestino=xxxxxxxxxxxxxxxx tstepQ=0 instrucao=0000000000000000 BusWires =0000000000001010 endereco=0000000000001001 saidaROM=0000000000000000 rx=0
# BusWires=0000000000001011
# Time=5900 clock=1 reset=1 run=1 done=0 Din=1 regDestino=xxxxxxxxxxxxxxxx tstepQ=1 instrucao=0000000000000000 BusWires =0000000000001011 endereco=0000000000001010 saidaROM=0000000000000000 rx=0
# Time=5950 clock=0 reset=1 run=1 done=0 Din=1 regDestino=xxxxxxxxxxxxxxxx tstepQ=1 instrucao=0000000000000000 BusWires =0000000000001011 endereco=0000000000001010 saidaROM=0000000000000000 rx=0
# Time=6000 clock=1 reset=1 run=1 done=0 Din=1 regDestino=xxxxxxxxxxxxxxxx tstepQ=10 instrucao=0000000000000000 BusWires =0000000000001011 endereco=0000000000001010 saidaROM=0000000000000000 rx=0
# Time=6050 clock=0 reset=1 run=1 done=0 Din=1 regDestino=xxxxxxxxxxxxxxxx tstepQ=10 instrucao=0000000000000000 BusWires =0000000000001011 endereco=0000000000001010 saidaROM=0000000000000000 rx=0
# r0=xxxxxxxxxxxxxxxx
# Time=6100 clock=1 reset=1 run=1 done=1 Din=1 regDestino=xxxxxxxxxxxxxxxx tstepQ=11 instrucao=0000000000000000 BusWires =xxxxxxxxxxxxxxxx endereco=0000000000001010 saidaROM=0000000000000000 rx=0
# Time=6150 clock=0 reset=1 run=1 done=1 Din=1 regDestino=xxxxxxxxxxxxxxxx tstepQ=11 instrucao=0000000000000000 BusWires =xxxxxxxxxxxxxxxx endereco=0000000000001010 saidaROM=0000000000000000 rx=0
# BusWires=0000000000001011
# Time=6200 clock=1 reset=1 run=1 done=0 Din=1 regDestino=xxxxxxxxxxxxxxxx tstepQ=0 instrucao=0000000000000000 BusWires =0000000000001011 endereco=0000000000001010 saidaROM=0000000000000000 rx=0
# Time=6250 clock=0 reset=1 run=1 done=0 Din=1 regDestino=xxxxxxxxxxxxxxxx tstepQ=0 instrucao=0000000000000000 BusWires =0000000000001011 endereco=0000000000001010 saidaROM=0000000000000000 rx=0
# BusWires=0000000000001100
# Time=6300 clock=1 reset=1 run=1 done=0 Din=1 regDestino=xxxxxxxxxxxxxxxx tstepQ=1 instrucao=0000000000000000 BusWires =0000000000001100 endereco=0000000000001011 saidaROM=0000000000000000 rx=0
