simulation/modelsim/msim_transcript
# Reading C:/altera/13.0sp1/modelsim_ase/tcl/vsim/pref.tcl 
# do projetoProcessador_run_msim_rtl_verilog.do 
# if {[file exists rtl_work]} {
# 	vdel -lib rtl_work -all
# }
# vlib rtl_work
# vmap work rtl_work
# Copying C:\altera\13.0sp1\modelsim_ase\win32aloem/../modelsim.ini to modelsim.ini
# Modifying modelsim.ini
# ** Warning: Copied C:\altera\13.0sp1\modelsim_ase\win32aloem/../modelsim.ini to modelsim.ini.
#          Updated modelsim.ini.
# 
# vlog -vlog01compat -work work +incdir+C:/pastaX/projetoProcessador {C:/pastaX/projetoProcessador/projetoProcessador.v}
# Model Technology ModelSim ALTERA vlog 10.1d Compiler 2012.11 Nov  2 2012
# -- Compiling module projetoProcessador
# -- Compiling module dec3to8
# -- Compiling module regn
# -- Compiling module Alu
# 
# Top level modules:
# 	projetoProcessador
# 
# vlog -vlog01compat -work work +incdir+C:/pastaX/projetoProcessador {C:/pastaX/projetoProcessador/projetoProcessador_tb.v}
# Model Technology ModelSim ALTERA vlog 10.1d Compiler 2012.11 Nov  2 2012
# -- Compiling module projetoProcessador_tb
# 
# Top level modules:
# 	projetoProcessador_tb
# 
# vsim -t 1ps -L altera_ver -L lpm_ver -L sgate_ver -L altera_mf_ver -L altera_lnsim_ver -L cycloneii_ver -L rtl_work -L work -voptargs="+acc"  projetoProcessador_tb
# vsim -L altera_ver -L lpm_ver -L sgate_ver -L altera_mf_ver -L altera_lnsim_ver -L cycloneii_ver -L rtl_work -L work -voptargs=\"+acc\" -t 1ps projetoProcessador_tb 
# Loading work.projetoProcessador_tb
# Loading work.projetoProcessador
# Loading work.dec3to8
# Loading work.regn
# Loading work.Alu
# 
# add wave *
# view structure
# .main_pane.structure.interior.cs.body.struct
# view signals
# .main_pane.objects.interior.cs.body.tree
# run -all
# Tstep_Q=0
# Testa mv
# Time=50 clock=0 reset=1 run=1 done=0 Din=1000000000010 regDestino=xxxxxxxxxxxxxxxx tstepQ=0 instrucao=0001000000000010 BusWires =xxxxxxxxxxxxxxxx saidaA=xxxxxxxxxxxxxxxx
# Time=100 clock=1 reset=1 run=1 done=1 Din=1000000000010 regDestino=xxxxxxxxxxxxxxxx tstepQ=1 instrucao=0001000000000010 BusWires =0000000000000010 saidaA=xxxxxxxxxxxxxxxx
# Time=150 clock=0 reset=1 run=1 done=1 Din=1000000000010 regDestino=xxxxxxxxxxxxxxxx tstepQ=1 instrucao=0001000000000010 BusWires =0000000000000010 saidaA=xxxxxxxxxxxxxxxx
# Time=200 clock=1 reset=1 run=1 done=0 Din=1000000000010 regDestino=0000000000000010 tstepQ=0 instrucao=0001000000000010 BusWires =0000000000000010 saidaA=xxxxxxxxxxxxxxxx
# Time=250 clock=0 reset=1 run=1 done=0 Din=1000000000010 regDestino=0000000000000010 tstepQ=0 instrucao=0001000000000010 BusWires =0000000000000010 saidaA=xxxxxxxxxxxxxxxx
# Testa mvt
# Time=350 clock=1 reset=1 run=1 done=0 Din=10001000000111 regDestino=xxxxxxxxxxxxxxxx tstepQ=0 instrucao=0010001000000111 BusWires =0000000000000111 saidaA=xxxxxxxxxxxxxxxx
# Time=400 clock=0 reset=1 run=1 done=0 Din=10001000000111 regDestino=xxxxxxxxxxxxxxxx tstepQ=0 instrucao=0010001000000111 BusWires =0000000000000111 saidaA=xxxxxxxxxxxxxxxx
# Time=450 clock=1 reset=1 run=1 done=1 Din=10001000000111 regDestino=xxxxxxxxxxxxxxxx tstepQ=1 instrucao=0010001000000111 BusWires =0000011100000000 saidaA=xxxxxxxxxxxxxxxx
# Time=500 clock=0 reset=1 run=1 done=1 Din=10001000000111 regDestino=xxxxxxxxxxxxxxxx tstepQ=1 instrucao=0010001000000111 BusWires =0000011100000000 saidaA=xxxxxxxxxxxxxxxx
# Time=550 clock=1 reset=1 run=1 done=0 Din=10001000000111 regDestino=0000011100000000 tstepQ=0 instrucao=0010001000000111 BusWires =0000011100000000 saidaA=xxxxxxxxxxxxxxxx
# Time=600 clock=0 reset=1 run=1 done=0 Din=10001000000111 regDestino=0000011100000000 tstepQ=0 instrucao=0010001000000111 BusWires =0000011100000000 saidaA=xxxxxxxxxxxxxxxx
# Testa Add
# Time=700 clock=1 reset=1 run=1 done=0 Din=100000000000001 regDestino=0000000000000010 tstepQ=0 instrucao=0100000000000001 BusWires =0000000100000000 saidaA=xxxxxxxxxxxxxxxx Select=1010 saidaALU=xxxxxxxxxxxxxxxx
# Time=750 clock=0 reset=1 run=1 done=0 Din=100000000000001 regDestino=0000000000000010 tstepQ=0 instrucao=0100000000000001 BusWires =0000000100000000 saidaA=xxxxxxxxxxxxxxxx Select=1010 saidaALU=xxxxxxxxxxxxxxxx
# Time=800 clock=1 reset=1 run=1 done=0 Din=100000000000001 regDestino=0000000000000010 tstepQ=1 instrucao=0100000000000001 BusWires =0000000000000010 saidaA=xxxxxxxxxxxxxxxx Select=0000 saidaALU=xxxxxxxxxxxxxxxx
# Time=850 clock=0 reset=1 run=1 done=0 Din=100000000000001 regDestino=0000000000000010 tstepQ=1 instrucao=0100000000000001 BusWires =0000000000000010 saidaA=xxxxxxxxxxxxxxxx Select=0000 saidaALU=xxxxxxxxxxxxxxxx
# Time=900 clock=1 reset=1 run=1 done=0 Din=100000000000001 regDestino=0000000000000010 tstepQ=10 instrucao=0100000000000001 BusWires =0000011100000000 saidaA=0000000000000010 Select=0001 saidaALU=0000011100000010
# Time=950 clock=0 reset=1 run=1 done=0 Din=100000000000001 regDestino=0000000000000010 tstepQ=10 instrucao=0100000000000001 BusWires =0000011100000000 saidaA=0000000000000010 Select=0001 saidaALU=0000011100000010
# Time=1000 clock=1 reset=1 run=1 done=1 Din=100000000000001 regDestino=0000000000000010 tstepQ=11 instrucao=0100000000000001 BusWires =0000011100000010 saidaA=0000000000000010 Select=1000 saidaALU=0000011100000100
# Time=1050 clock=0 reset=1 run=1 done=1 Din=100000000000001 regDestino=0000000000000010 tstepQ=11 instrucao=0100000000000001 BusWires =0000011100000010 saidaA=0000000000000010 Select=1000 saidaALU=0000011100000100
# Time=1100 clock=1 reset=1 run=1 done=0 Din=100000000000001 regDestino=0000011100000010 tstepQ=0 instrucao=0100000000000001 BusWires =0000011100000010 saidaA=0000000000000010 Select=1000 saidaALU=0000011100000100
# Time=1150 clock=0 reset=1 run=1 done=0 Din=100000000000001 regDestino=0000011100000010 tstepQ=0 instrucao=0100000000000001 BusWires =0000011100000010 saidaA=0000000000000010 Select=1000 saidaALU=0000011100000100
# Testa Sub
# Time=1250 clock=1 reset=1 run=1 done=0 Din=111000000000111 regDestino=0000011100000010 tstepQ=0 instrucao=0111000000000111 BusWires =0000011100000010 saidaA=0000000000000010 Select=1000 saidaALU=0000011100000100
# Time=1300 clock=0 reset=1 run=1 done=0 Din=111000000000111 regDestino=0000011100000010 tstepQ=0 instrucao=0111000000000111 BusWires =0000011100000010 saidaA=0000000000000010 Select=1000 saidaALU=0000011100000100
# Time=1350 clock=1 reset=1 run=1 done=0 Din=111000000000111 regDestino=0000011100000010 tstepQ=1 instrucao=0111000000000111 BusWires =0000011100000010 saidaA=0000000000000010 Select=0000 saidaALU=0000011100000100
# Time=1400 clock=0 reset=1 run=1 done=0 Din=111000000000111 regDestino=0000011100000010 tstepQ=1 instrucao=0111000000000111 BusWires =0000011100000010 saidaA=0000000000000010 Select=0000 saidaALU=0000011100000100
# Time=1450 clock=1 reset=1 run=1 done=0 Din=111000000000111 regDestino=0000011100000010 tstepQ=10 instrucao=0111000000000111 BusWires =0000000000000111 saidaA=0000011100000010 Select=1001 saidaALU=0000011011111011
# Time=1500 clock=0 reset=1 run=1 done=0 Din=111000000000111 regDestino=0000011100000010 tstepQ=10 instrucao=0111000000000111 BusWires =0000000000000111 saidaA=0000011100000010 Select=1001 saidaALU=0000011011111011
# Time=1550 clock=1 reset=1 run=1 done=1 Din=111000000000111 regDestino=0000011100000010 tstepQ=11 instrucao=0111000000000111 BusWires =0000011011111011 saidaA=0000000000000111 Select=1000 saidaALU=0000011100000010
# Time=1600 clock=0 reset=1 run=1 done=1 Din=111000000000111 regDestino=0000011100000010 tstepQ=11 instrucao=0111000000000111 BusWires =0000011011111011 saidaA=0000000000000111 Select=1000 saidaALU=0000011100000010
# Time=1650 clock=1 reset=1 run=1 done=0 Din=111000000000111 regDestino=0000011011111011 tstepQ=0 instrucao=0111000000000111 BusWires =0000011011111011 saidaA=0000011011111011 Select=1000 saidaALU=0000110111110110
# Time=1700 clock=0 reset=1 run=1 done=0 Din=111000000000111 regDestino=0000011011111011 tstepQ=0 instrucao=0111000000000111 BusWires =0000011011111011 saidaA=0000011011111011 Select=1000 saidaALU=0000110111110110
