simulation/modelsim/msim_transcript
# Reading C:/altera/13.0sp1/modelsim_ase/tcl/vsim/pref.tcl 
# do projetoProcessador_run_msim_rtl_verilog.do 
# if {[file exists rtl_work]} {
# 	vdel -lib rtl_work -all
# }
# vlib rtl_work
# vmap work rtl_work
# Copying C:\altera\13.0sp1\modelsim_ase\win32aloem/../modelsim.ini to modelsim.ini
# Modifying modelsim.ini
# ** Warning: Copied C:\altera\13.0sp1\modelsim_ase\win32aloem/../modelsim.ini to modelsim.ini.
#          Updated modelsim.ini.
# 
# vlog -vlog01compat -work work +incdir+C:/pastaX/projetoProcessador {C:/pastaX/projetoProcessador/projetoProcessador.v}
# Model Technology ModelSim ALTERA vlog 10.1d Compiler 2012.11 Nov  2 2012
# -- Compiling module projetoProcessador
# -- Compiling module dec3to8
# -- Compiling module regW
# -- Compiling module pc_counter
# -- Compiling module regInstr
# -- Compiling module regn
# -- Compiling module Alu
# -- Compiling module F
# -- Compiling module barrel
# 
# Top level modules:
# 	projetoProcessador
# 	regInstr
# vlog -vlog01compat -work work +incdir+C:/pastaX/projetoProcessador {C:/pastaX/projetoProcessador/memoriaPrincipal.v}
# Model Technology ModelSim ALTERA vlog 10.1d Compiler 2012.11 Nov  2 2012
# -- Compiling module memoriaPrincipal
# 
# Top level modules:
# 	memoriaPrincipal
# vlog -vlog01compat -work work +incdir+C:/pastaX/projetoProcessador {C:/pastaX/projetoProcessador/instr_memory.v}
# Model Technology ModelSim ALTERA vlog 10.1d Compiler 2012.11 Nov  2 2012
# -- Compiling module instr_memory
# 
# Top level modules:
# 	instr_memory
# 
# vlog -vlog01compat -work work +incdir+C:/pastaX/projetoProcessador {C:/pastaX/projetoProcessador/projetoProcessador_tb.v}
# Model Technology ModelSim ALTERA vlog 10.1d Compiler 2012.11 Nov  2 2012
# -- Compiling module projetoProcessador_tb
# 
# Top level modules:
# 	projetoProcessador_tb
# 
# vsim -t 1ps -L altera_ver -L lpm_ver -L sgate_ver -L altera_mf_ver -L altera_lnsim_ver -L cycloneii_ver -L rtl_work -L work -voptargs="+acc"  projetoProcessador_tb
# vsim -L altera_ver -L lpm_ver -L sgate_ver -L altera_mf_ver -L altera_lnsim_ver -L cycloneii_ver -L rtl_work -L work -voptargs=\"+acc\" -t 1ps projetoProcessador_tb 
# Loading work.projetoProcessador_tb
# Loading work.projetoProcessador
# Loading work.dec3to8
# Loading work.instr_memory
# Loading altera_mf_ver.altsyncram
# Loading altera_mf_ver.ALTERA_DEVICE_FAMILIES
# Loading altera_mf_ver.ALTERA_MF_MEMORY_INITIALIZATION
# Loading work.memoriaPrincipal
# Loading work.regn
# Loading work.pc_counter
# Loading work.regW
# Loading work.Alu
# Loading work.F
# Loading work.barrel
# ** Warning: (vsim-3015) C:/pastaX/projetoProcessador/projetoProcessador.v(49): [PCDPC] - Port size (5 or 5) does not match connection size (32) for port 'address'. The port definition is at: C:/pastaX/projetoProcessador/instr_memory.v(40).
# 
#         Region: /projetoProcessador_tb/proc/memInstr
# 
# add wave *
# view structure
# .main_pane.structure.interior.cs.body.struct
# view signals
# .main_pane.objects.interior.cs.body.tree
# run -all
# -------------------------------------- MV R0, #2 --------------------------------------
# data_in=0000000000000000 shift=xxx 
# data_in=0000000000000000 shift=000 
# T0 | Done: 0 | r0: 0000 | r1: 0000 | r2: 0000 | r3: 0000 | r4: 0000 | r5: 0000 | r6: 0000 | buswires: 0000 | pc: 0000 | pc_incr: 1
# addr:     0 | addr_in: 1 | DATA: 0000 | dout: xxxx | dout_in: x | a: 0000 | g: 0000 | f: x | F_in: 0 | zero: x | IR: 0000000000000000 | W: 0
# 
# data_in=0000000000000000 shift=001 
# T1 | Done: 0 | r0: 0000 | r1: 0000 | r2: 0000 | r3: 0000 | r4: 0000 | r5: 0000 | r6: 0000 | buswires: 0001 | pc: 0001 | pc_incr: 0
# addr:     0 | addr_in: 0 | DATA: 0000 | dout: 0000 | dout_in: x | a: 0000 | g: 0000 | f: x | F_in: 0 | zero: x | IR: 0000000000000000 | W: 0
# 
# T2 | Done: 0 | r0: 0000 | r1: 0000 | r2: 0000 | r3: 0000 | r4: 0000 | r5: 0000 | r6: 0000 | buswires: 0001 | pc: 0001 | pc_incr: 0
# addr:     0 | addr_in: 0 | DATA: 0000 | dout: 0000 | dout_in: x | a: 0000 | g: 0000 | f: x | F_in: 0 | zero: x | IR: 0000000000000000 | W: 0
# 
# data_in=0000000000000000 shift=010 
# T3 | Done: 1 | r0: 0000 | r1: 0000 | r2: 0000 | r3: 0000 | r4: 0000 | r5: 0000 | r6: 0000 | buswires: 0002 | pc: 0001 | pc_incr: 0
# addr:     0 | addr_in: 0 | DATA: 0000 | dout: 0000 | dout_in: x | a: 0000 | g: 0000 | f: x | F_in: 0 | zero: x | IR: 0001000000000010 | W: 0
# 
# data_in=0000000000000000 shift=001 
# T0 | Done: 0 | r0: 0002 | r1: 0000 | r2: 0000 | r3: 0000 | r4: 0000 | r5: 0000 | r6: 0000 | buswires: 0001 | pc: 0001 | pc_incr: 1
# addr:     0 | addr_in: 1 | DATA: 0000 | dout: 0000 | dout_in: x | a: 0000 | g: 0000 | f: x | F_in: 0 | zero: x | IR: 0001000000000010 | W: 0
# 
# data_in=0000000000000000 shift=010 
# T1 | Done: 0 | r0: 0002 | r1: 0000 | r2: 0000 | r3: 0000 | r4: 0000 | r5: 0000 | r6: 0000 | buswires: 0002 | pc: 0002 | pc_incr: 0
# addr:     1 | addr_in: 0 | DATA: 0000 | dout: 0000 | dout_in: x | a: 0000 | g: 0000 | f: x | F_in: 0 | zero: x | IR: 0001000000000010 | W: 0
# 
# T2 | Done: 0 | r0: 0002 | r1: 0000 | r2: 0000 | r3: 0000 | r4: 0000 | r5: 0000 | r6: 0000 | buswires: 0002 | pc: 0002 | pc_incr: 0
# addr:     1 | addr_in: 0 | DATA: 0000 | dout: 0000 | dout_in: x | a: 0000 | g: 0000 | f: x | F_in: 0 | zero: x | IR: 0001000000000010 | W: 0
# 
# data_in=0000000000000000 shift=011 
# T3 | Done: 1 | r0: 0002 | r1: 0000 | r2: 0000 | r3: 0000 | r4: 0000 | r5: 0000 | r6: 0000 | buswires: 0003 | pc: 0002 | pc_incr: 0
# addr:     1 | addr_in: 0 | DATA: 0000 | dout: 0000 | dout_in: x | a: 0000 | g: 0000 | f: x | F_in: 0 | zero: x | IR: 0001001000000011 | W: 0
# 
# -------------------------------------- MV R1, #3 --------------------------------------
# data_in=0000000000000000 shift=010 
# T0 | Done: 0 | r0: 0002 | r1: 0003 | r2: 0000 | r3: 0000 | r4: 0000 | r5: 0000 | r6: 0000 | buswires: 0002 | pc: 0002 | pc_incr: 1
# addr:     1 | addr_in: 1 | DATA: 0000 | dout: 0000 | dout_in: x | a: 0000 | g: 0000 | f: x | F_in: 0 | zero: x | IR: 0001001000000011 | W: 0
# 
# data_in=0000000000000000 shift=011 
# T1 | Done: 0 | r0: 0002 | r1: 0003 | r2: 0000 | r3: 0000 | r4: 0000 | r5: 0000 | r6: 0000 | buswires: 0003 | pc: 0003 | pc_incr: 0
# addr:     2 | addr_in: 0 | DATA: 0000 | dout: 0000 | dout_in: x | a: 0000 | g: 0000 | f: x | F_in: 0 | zero: x | IR: 0001001000000011 | W: 0
# 
# T2 | Done: 0 | r0: 0002 | r1: 0003 | r2: 0000 | r3: 0000 | r4: 0000 | r5: 0000 | r6: 0000 | buswires: 0003 | pc: 0003 | pc_incr: 0
# addr:     2 | addr_in: 0 | DATA: 0000 | dout: 0000 | dout_in: x | a: 0000 | g: 0000 | f: x | F_in: 0 | zero: x | IR: 0001001000000011 | W: 0
# 
# T3 | Done: 0 | r0: 0002 | r1: 0003 | r2: 0000 | r3: 0000 | r4: 0000 | r5: 0000 | r6: 0000 | buswires: 0003 | pc: 0003 | pc_incr: 0
# addr:     2 | addr_in: 0 | DATA: 0000 | dout: 0000 | dout_in: x | a: 0000 | g: 0000 | f: x | F_in: 0 | zero: x | IR: 0100001000000000 | W: 0
# 
# -------------------------------------- ADD R1, R0 --------------------------------------
# data_in=0000000000000011 shift=011 
# data_in=0000000000000011 shift=010 
# T4 | Done: 0 | r0: 0002 | r1: 0003 | r2: 0000 | r3: 0000 | r4: 0000 | r5: 0000 | r6: 0000 | buswires: 0002 | pc: 0003 | pc_incr: 0
# addr:     2 | addr_in: 0 | DATA: 0000 | dout: 0000 | dout_in: x | a: 0003 | g: 0000 | f: x | F_in: 1 | zero: 0 | IR: 0100001000000000 | W: 0
# 
# data_in=0000000000000010 shift=010 
# data_in=0000000000000010 shift=101 
# T5 | Done: 1 | r0: 0002 | r1: 0003 | r2: 0000 | r3: 0000 | r4: 0000 | r5: 0000 | r6: 0000 | buswires: 0005 | pc: 0003 | pc_incr: 0
# addr:     2 | addr_in: 0 | DATA: 0000 | dout: 0000 | dout_in: x | a: 0002 | g: 0005 | f: z | F_in: 0 | zero: 0 | IR: 0100001000000000 | W: 0
# 
# data_in=0000000000000101 shift=101 
# data_in=0000000000000101 shift=011 
# T0 | Done: 0 | r0: 0002 | r1: 0005 | r2: 0000 | r3: 0000 | r4: 0000 | r5: 0000 | r6: 0000 | buswires: 0003 | pc: 0003 | pc_incr: 1
# addr:     2 | addr_in: 1 | DATA: 0000 | dout: 0000 | dout_in: x | a: 0005 | g: 0005 | f: z | F_in: 0 | zero: 0 | IR: 0100001000000000 | W: 0
# 
# data_in=0000000000000011 shift=011 
# data_in=0000000000000011 shift=100 
# T1 | Done: 0 | r0: 0002 | r1: 0005 | r2: 0000 | r3: 0000 | r4: 0000 | r5: 0000 | r6: 0000 | buswires: 0004 | pc: 0004 | pc_incr: 0
# addr:     3 | addr_in: 0 | DATA: 0000 | dout: 0000 | dout_in: x | a: 0003 | g: 0005 | f: z | F_in: 0 | zero: 0 | IR: 0100001000000000 | W: 0
# 
# data_in=0000000000000100 shift=100 
# T2 | Done: 0 | r0: 0002 | r1: 0005 | r2: 0000 | r3: 0000 | r4: 0000 | r5: 0000 | r6: 0000 | buswires: 0004 | pc: 0004 | pc_incr: 0
# addr:     3 | addr_in: 0 | DATA: 0000 | dout: 0006 | dout_in: x | a: 0004 | g: 0005 | f: z | F_in: 0 | zero: 0 | IR: 0100001000000000 | W: 0
# 
# data_in=0000000000000100 shift=010 
# T3 | Done: 1 | r0: 0002 | r1: 0005 | r2: 0000 | r3: 0000 | r4: 0000 | r5: 0000 | r6: 0000 | buswires: 0002 | pc: 0004 | pc_incr: 0
# addr:     3 | addr_in: 0 | DATA: 0000 | dout: 0006 | dout_in: x | a: 0004 | g: 0005 | f: z | F_in: 0 | zero: 0 | IR: 0000010000000000 | W: 0
# 
# -------------------------------------- MV R2, R0 --------------------------------------
# data_in=0000000000000010 shift=010 
# data_in=0000000000000010 shift=100 
# T0 | Done: 0 | r0: 0002 | r1: 0005 | r2: 0002 | r3: 0000 | r4: 0000 | r5: 0000 | r6: 0000 | buswires: 0004 | pc: 0004 | pc_incr: 1
# addr:     3 | addr_in: 1 | DATA: 0000 | dout: 0006 | dout_in: x | a: 0002 | g: 0005 | f: z | F_in: 0 | zero: 0 | IR: 0000010000000000 | W: 0
# 
# data_in=0000000000000100 shift=100 
# data_in=0000000000000100 shift=101 
# T1 | Done: 0 | r0: 0002 | r1: 0005 | r2: 0002 | r3: 0000 | r4: 0000 | r5: 0000 | r6: 0000 | buswires: 0005 | pc: 0005 | pc_incr: 0
# addr:     4 | addr_in: 0 | DATA: 0000 | dout: 0006 | dout_in: x | a: 0004 | g: 0005 | f: z | F_in: 0 | zero: 0 | IR: 0000010000000000 | W: 0
# 
# data_in=0000000000000101 shift=101 
# T2 | Done: 0 | r0: 0002 | r1: 0005 | r2: 0002 | r3: 0000 | r4: 0000 | r5: 0000 | r6: 0000 | buswires: 0005 | pc: 0005 | pc_incr: 0
# addr:     4 | addr_in: 0 | DATA: 0000 | dout: 0000 | dout_in: x | a: 0005 | g: 0005 | f: z | F_in: 0 | zero: 0 | IR: 0000010000000000 | W: 0
# 
# data_in=0000000000000101 shift=010 
# T3 | Done: 0 | r0: 0002 | r1: 0005 | r2: 0002 | r3: 0000 | r4: 0000 | r5: 0000 | r6: 0000 | buswires: 0002 | pc: 0005 | pc_incr: 0
# addr:     4 | addr_in: 0 | DATA: 0000 | dout: 0000 | dout_in: x | a: 0005 | g: 0005 | f: z | F_in: 0 | zero: 0 | IR: 0101010000000100 | W: 0
# 
# -------------------------------------- ADD R2, #4 --------------------------------------
# data_in=0000000000000010 shift=010 
# data_in=0000000000000010 shift=100 
# T4 | Done: 0 | r0: 0002 | r1: 0005 | r2: 0002 | r3: 0000 | r4: 0000 | r5: 0000 | r6: 0000 | buswires: 0004 | pc: 0005 | pc_incr: 0
# addr:     4 | addr_in: 0 | DATA: 0000 | dout: 0000 | dout_in: x | a: 0002 | g: 0005 | f: z | F_in: 1 | zero: 0 | IR: 0101010000000100 | W: 0
# 
# data_in=0000000000000100 shift=100 
# data_in=0000000000000100 shift=110 
# T5 | Done: 1 | r0: 0002 | r1: 0005 | r2: 0002 | r3: 0000 | r4: 0000 | r5: 0000 | r6: 0000 | buswires: 0006 | pc: 0005 | pc_incr: 0
# addr:     4 | addr_in: 0 | DATA: 0000 | dout: 0000 | dout_in: x | a: 0004 | g: 0006 | f: z | F_in: 0 | zero: 0 | IR: 0101010000000100 | W: 0
# 
# data_in=0000000000000110 shift=110 
# data_in=0000000000000110 shift=101 
# T0 | Done: 0 | r0: 0002 | r1: 0005 | r2: 0006 | r3: 0000 | r4: 0000 | r5: 0000 | r6: 0000 | buswires: 0005 | pc: 0005 | pc_incr: 1
# addr:     4 | addr_in: 1 | DATA: 0000 | dout: 0000 | dout_in: x | a: 0006 | g: 0006 | f: z | F_in: 0 | zero: 0 | IR: 0101010000000100 | W: 0
# 
# data_in=0000000000000101 shift=101 
# data_in=0000000000000101 shift=110 
# T1 | Done: 0 | r0: 0002 | r1: 0005 | r2: 0006 | r3: 0000 | r4: 0000 | r5: 0000 | r6: 0000 | buswires: 0006 | pc: 0006 | pc_incr: 0
# addr:     5 | addr_in: 0 | DATA: 0000 | dout: 0000 | dout_in: x | a: 0005 | g: 0006 | f: z | F_in: 0 | zero: 0 | IR: 0101010000000100 | W: 0
# 
# data_in=0000000000000110 shift=110 
# T2 | Done: 0 | r0: 0002 | r1: 0005 | r2: 0006 | r3: 0000 | r4: 0000 | r5: 0000 | r6: 0000 | buswires: 0006 | pc: 0006 | pc_incr: 0
# addr:     5 | addr_in: 0 | DATA: 0000 | dout: 0000 | dout_in: x | a: 0006 | g: 0006 | f: z | F_in: 0 | zero: 0 | IR: 0101010000000100 | W: 0
# 
# T3 | Done: 0 | r0: 0002 | r1: 0005 | r2: 0006 | r3: 0000 | r4: 0000 | r5: 0000 | r6: 0000 | buswires: 0006 | pc: 0006 | pc_incr: 0
# addr:     5 | addr_in: 0 | DATA: 0000 | dout: 0000 | dout_in: x | a: 0006 | g: 0006 | f: z | F_in: 0 | zero: 0 | IR: 0110010000000001 | W: 0
# 
# -------------------------------------- SUB R2, R1 --------------------------------------
# data_in=0000000000000110 shift=101 
# T4 | Done: 0 | r0: 0002 | r1: 0005 | r2: 0006 | r3: 0000 | r4: 0000 | r5: 0000 | r6: 0000 | buswires: 0005 | pc: 0006 | pc_incr: 0
# addr:     5 | addr_in: 0 | DATA: 0000 | dout: 0000 | dout_in: x | a: 0006 | g: 0006 | f: z | F_in: 1 | zero: 0 | IR: 0110010000000001 | W: 0
# 
# data_in=0000000000000101 shift=101 
# data_in=0000000000000101 shift=001 
# T5 | Done: 1 | r0: 0002 | r1: 0005 | r2: 0006 | r3: 0000 | r4: 0000 | r5: 0000 | r6: 0000 | buswires: 0001 | pc: 0006 | pc_incr: 0
# addr:     5 | addr_in: 0 | DATA: 0000 | dout: 0000 | dout_in: x | a: 0005 | g: 0001 | f: z | F_in: 0 | zero: 1 | IR: 0110010000000001 | W: 0
# 
# data_in=0000000000000001 shift=001 
# data_in=0000000000000001 shift=110 
# T0 | Done: 0 | r0: 0002 | r1: 0005 | r2: 0001 | r3: 0000 | r4: 0000 | r5: 0000 | r6: 0000 | buswires: 0006 | pc: 0006 | pc_incr: 1
# addr:     5 | addr_in: 1 | DATA: 0000 | dout: 0000 | dout_in: x | a: 0001 | g: 0001 | f: z | F_in: 0 | zero: 1 | IR: 0110010000000001 | W: 0
# 
# data_in=0000000000000110 shift=110 
# data_in=0000000000000110 shift=111 
# T1 | Done: 0 | r0: 0002 | r1: 0005 | r2: 0001 | r3: 0000 | r4: 0000 | r5: 0000 | r6: 0000 | buswires: 0007 | pc: 0007 | pc_incr: 0
# addr:     6 | addr_in: 0 | DATA: 0000 | dout: 0000 | dout_in: x | a: 0006 | g: 0001 | f: z | F_in: 0 | zero: 1 | IR: 0110010000000001 | W: 0
# 
# data_in=0000000000000111 shift=111 
# T2 | Done: 0 | r0: 0002 | r1: 0005 | r2: 0001 | r3: 0000 | r4: 0000 | r5: 0000 | r6: 0000 | buswires: 0007 | pc: 0007 | pc_incr: 0
# addr:     6 | addr_in: 0 | DATA: 0000 | dout: 0000 | dout_in: x | a: 0007 | g: 0001 | f: z | F_in: 0 | zero: 1 | IR: 0110010000000001 | W: 0
# 
# data_in=0000000000000111 shift=001 
# T3 | Done: 1 | r0: 0002 | r1: 0005 | r2: 0001 | r3: 0000 | r4: 0000 | r5: 0000 | r6: 0000 | buswires: 0001 | pc: 0007 | pc_incr: 0
# addr:     6 | addr_in: 0 | DATA: 0000 | dout: 0000 | dout_in: x | a: 0007 | g: 0001 | f: z | F_in: 0 | zero: 1 | IR: 0000011000000010 | W: 0
# 
# -------------------------------------- MV R3, R2 --------------------------------------
# data_in=0000000000000001 shift=001 
# data_in=0000000000000001 shift=111 
# T0 | Done: 0 | r0: 0002 | r1: 0005 | r2: 0001 | r3: 0001 | r4: 0000 | r5: 0000 | r6: 0000 | buswires: 0007 | pc: 0007 | pc_incr: 1
# addr:     6 | addr_in: 1 | DATA: 0000 | dout: 0000 | dout_in: x | a: 0001 | g: 0001 | f: z | F_in: 0 | zero: 1 | IR: 0000011000000010 | W: 0
# 
# data_in=0000000000000111 shift=111 
# data_in=0000000000000111 shift=1000 
# T1 | Done: 0 | r0: 0002 | r1: 0005 | r2: 0001 | r3: 0001 | r4: 0000 | r5: 0000 | r6: 0000 | buswires: 0008 | pc: 0008 | pc_incr: 0
# addr:     7 | addr_in: 0 | DATA: 0000 | dout: 0000 | dout_in: x | a: 0007 | g: 0001 | f: z | F_in: 0 | zero: 1 | IR: 0000011000000010 | W: 0
# 
# data_in=0000000000001000 shift=1000 
# T2 | Done: 0 | r0: 0002 | r1: 0005 | r2: 0001 | r3: 0001 | r4: 0000 | r5: 0000 | r6: 0000 | buswires: 0008 | pc: 0008 | pc_incr: 0
# addr:     7 | addr_in: 0 | DATA: 0000 | dout: 0000 | dout_in: x | a: 0008 | g: 0001 | f: z | F_in: 0 | zero: 1 | IR: 0000011000000010 | W: 0
# 
# data_in=0000000000001000 shift=010 
# T3 | Done: 0 | r0: 0002 | r1: 0005 | r2: 0001 | r3: 0001 | r4: 0000 | r5: 0000 | r6: 0000 | buswires: 0002 | pc: 0008 | pc_incr: 0
# addr:     7 | addr_in: 0 | DATA: 0000 | dout: 0000 | dout_in: x | a: 0008 | g: 0001 | f: z | F_in: 0 | zero: 1 | IR: 0100000000000011 | W: 0
# 
# -------------------------------------- ADD R0,R3 --------------------------------------
# data_in=0000000000000010 shift=010 
# data_in=0000000000000010 shift=001 
# T4 | Done: 0 | r0: 0002 | r1: 0005 | r2: 0001 | r3: 0001 | r4: 0000 | r5: 0000 | r6: 0000 | buswires: 0001 | pc: 0008 | pc_incr: 0
# addr:     7 | addr_in: 0 | DATA: 0000 | dout: 0000 | dout_in: x | a: 0002 | g: 0001 | f: z | F_in: 1 | zero: 0 | IR: 0100000000000011 | W: 0
# 
# data_in=0000000000000001 shift=001 
# data_in=0000000000000001 shift=011 
# T5 | Done: 1 | r0: 0002 | r1: 0005 | r2: 0001 | r3: 0001 | r4: 0000 | r5: 0000 | r6: 0000 | buswires: 0003 | pc: 0008 | pc_incr: 0
# addr:     7 | addr_in: 0 | DATA: 0000 | dout: 0000 | dout_in: x | a: 0001 | g: 0003 | f: z | F_in: 0 | zero: 0 | IR: 0100000000000011 | W: 0
# 
# data_in=0000000000000011 shift=011 
# data_in=0000000000000011 shift=1000 
# T0 | Done: 0 | r0: 0003 | r1: 0005 | r2: 0001 | r3: 0001 | r4: 0000 | r5: 0000 | r6: 0000 | buswires: 0008 | pc: 0008 | pc_incr: 1
# addr:     7 | addr_in: 1 | DATA: 0000 | dout: 0000 | dout_in: x | a: 0003 | g: 0003 | f: z | F_in: 0 | zero: 0 | IR: 0100000000000011 | W: 0
# 
# data_in=0000000000001000 shift=1000 
# data_in=0000000000001000 shift=1001 
# T1 | Done: 0 | r0: 0003 | r1: 0005 | r2: 0001 | r3: 0001 | r4: 0000 | r5: 0000 | r6: 0000 | buswires: 0009 | pc: 0009 | pc_incr: 0
# addr:     8 | addr_in: 0 | DATA: 0000 | dout: 0000 | dout_in: x | a: 0008 | g: 0003 | f: z | F_in: 0 | zero: 0 | IR: 0100000000000011 | W: 0
# 
# data_in=0000000000001001 shift=1001 
# T2 | Done: 0 | r0: 0003 | r1: 0005 | r2: 0001 | r3: 0001 | r4: 0000 | r5: 0000 | r6: 0000 | buswires: 0009 | pc: 0009 | pc_incr: 0
# addr:     8 | addr_in: 0 | DATA: 0000 | dout: 0000 | dout_in: x | a: 0009 | g: 0003 | f: z | F_in: 0 | zero: 0 | IR: 0100000000000011 | W: 0
# 
# data_in=0000000000001001 shift=011 
# T3 | Done: 0 | r0: 0003 | r1: 0005 | r2: 0001 | r3: 0001 | r4: 0000 | r5: 0000 | r6: 0000 | buswires: 0003 | pc: 0009 | pc_incr: 0
# addr:     8 | addr_in: 0 | DATA: 0000 | dout: 0000 | dout_in: x | a: 0009 | g: 0003 | f: z | F_in: 0 | zero: 0 | IR: 1100000000000001 | W: 0
# 
# -------------------------------------- AND R0, R1 --------------------------------------
# data_in=0000000000000011 shift=011 
# data_in=0000000000000011 shift=101 
# T4 | Done: 0 | r0: 0003 | r1: 0005 | r2: 0001 | r3: 0001 | r4: 0000 | r5: 0000 | r6: 0000 | buswires: 0005 | pc: 0009 | pc_incr: 0
# addr:     8 | addr_in: 0 | DATA: 0000 | dout: 0000 | dout_in: x | a: 0003 | g: 0003 | f: z | F_in: 1 | zero: 0 | IR: 1100000000000001 | W: 0
# 
# data_in=0000000000000101 shift=101 
# data_in=0000000000000101 shift=001 
# T5 | Done: 1 | r0: 0003 | r1: 0005 | r2: 0001 | r3: 0001 | r4: 0000 | r5: 0000 | r6: 0000 | buswires: 0001 | pc: 0009 | pc_incr: 0
# addr:     8 | addr_in: 0 | DATA: 0000 | dout: 0000 | dout_in: x | a: 0005 | g: 0001 | f: z | F_in: 0 | zero: 0 | IR: 1100000000000001 | W: 0
# 
# data_in=0000000000000001 shift=001 
# data_in=0000000000000001 shift=1001 
# T0 | Done: 0 | r0: 0001 | r1: 0005 | r2: 0001 | r3: 0001 | r4: 0000 | r5: 0000 | r6: 0000 | buswires: 0009 | pc: 0009 | pc_incr: 1
# addr:     8 | addr_in: 1 | DATA: 0000 | dout: 0000 | dout_in: x | a: 0001 | g: 0001 | f: z | F_in: 0 | zero: 0 | IR: 1100000000000001 | W: 0
# 
# data_in=0000000000001001 shift=1001 
# data_in=0000000000001001 shift=1010 
# T1 | Done: 0 | r0: 0001 | r1: 0005 | r2: 0001 | r3: 0001 | r4: 0000 | r5: 0000 | r6: 0000 | buswires: 000a | pc: 000a | pc_incr: 0
# addr:     9 | addr_in: 0 | DATA: 0000 | dout: 0000 | dout_in: x | a: 0009 | g: 0001 | f: z | F_in: 0 | zero: 0 | IR: 1100000000000001 | W: 0
# 
# data_in=0000000000001010 shift=1010 
# T2 | Done: 0 | r0: 0001 | r1: 0005 | r2: 0001 | r3: 0001 | r4: 0000 | r5: 0000 | r6: 0000 | buswires: 000a | pc: 000a | pc_incr: 0
# addr:     9 | addr_in: 0 | DATA: 0000 | dout: 0000 | dout_in: x | a: 000a | g: 0001 | f: z | F_in: 0 | zero: 0 | IR: 1100000000000001 | W: 0
# 
# data_in=0000000000001010 shift=101 
# T3 | Done: 0 | r0: 0001 | r1: 0005 | r2: 0001 | r3: 0001 | r4: 0000 | r5: 0000 | r6: 0000 | buswires: 0005 | pc: 000a | pc_incr: 0
# addr:     9 | addr_in: 0 | DATA: 0000 | dout: 0000 | dout_in: x | a: 000a | g: 0001 | f: z | F_in: 0 | zero: 0 | IR: 1110001100000011 | W: 0
# 
# -------------------------------------- SLL R1, R3  --------------------------------------
# data_in=0000000000000101 shift=101 
# luiz
# ,Res=0000000000000101
# luiz
# ,Res=0000000010100000
# data_in=0000000000000101 shift=001 
# luiz
# ,Res=0000000010100000
# T4 | Done: 0 | r0: 0001 | r1: 0005 | r2: 0001 | r3: 0001 | r4: 0000 | r5: 0000 | r6: 0000 | buswires: 0001 | pc: 000a | pc_incr: 0
# addr:     9 | addr_in: 0 | DATA: 0000 | dout: 0000 | dout_in: x | a: 0005 | g: 0001 | f: z | F_in: 1 | zero: 0 | IR: 1110001100000011 | W: 0
# 
# luiz
# ,Res=0000000000001010
# data_in=0000000000000001 shift=001 
# data_in=0000000000000001 shift=1010 
# T5 | Done: 1 | r0: 0001 | r1: 0005 | r2: 0001 | r3: 0001 | r4: 0000 | r5: 0000 | r6: 0000 | buswires: 000a | pc: 000a | pc_incr: 0
# addr:     9 | addr_in: 0 | DATA: 0000 | dout: 0000 | dout_in: x | a: 0001 | g: 000a | f: z | F_in: 0 | zero: 0 | IR: 1110001100000011 | W: 0
# 
# data_in=0000000000001010 shift=1010 
# T0 | Done: 0 | r0: 0001 | r1: 000a | r2: 0001 | r3: 0001 | r4: 0000 | r5: 0000 | r6: 0000 | buswires: 000a | pc: 000a | pc_incr: 1
# addr:     9 | addr_in: 1 | DATA: 0000 | dout: 0000 | dout_in: x | a: 000a | g: 000a | f: z | F_in: 0 | zero: 0 | IR: 1110001100000011 | W: 0
# 
# data_in=0000000000001010 shift=1011 
# T1 | Done: 0 | r0: 0001 | r1: 000a | r2: 0001 | r3: 0001 | r4: 0000 | r5: 0000 | r6: 0000 | buswires: 000b | pc: 000b | pc_incr: 0
# addr:    10 | addr_in: 0 | DATA: 0000 | dout: 0000 | dout_in: x | a: 000a | g: 000a | f: z | F_in: 0 | zero: 0 | IR: 1110001100000011 | W: 0
# 
# data_in=0000000000001011 shift=1011 
# T2 | Done: 0 | r0: 0001 | r1: 000a | r2: 0001 | r3: 0001 | r4: 0000 | r5: 0000 | r6: 0000 | buswires: 000b | pc: 000b | pc_incr: 0
# addr:    10 | addr_in: 0 | DATA: 0000 | dout: 0000 | dout_in: x | a: 000b | g: 000a | f: z | F_in: 0 | zero: 0 | IR: 1110001100000011 | W: 0
# 
# T3 | Done: 0 | r0: 0001 | r1: 000a | r2: 0001 | r3: 0001 | r4: 0000 | r5: 0000 | r6: 0000 | buswires: 000a | pc: 000b | pc_incr: 0
# addr:    10 | addr_in: 0 | DATA: 0000 | dout: 0000 | dout_in: x | a: 000b | g: 000a | f: z | F_in: 0 | zero: 0 | IR: 1110001100100011 | W: 0
# 
# -------------------------------------- SRL R1, R3 --------------------------------------
# luiz
# ,Res=0000000000001010
# luiz
# ,Res=0000000000000000
# luiz
# ,Res=0000000000000000
# T4 | Done: 0 | r0: 0001 | r1: 000a | r2: 0001 | r3: 0001 | r4: 0000 | r5: 0000 | r6: 0000 | buswires: 0001 | pc: 000b | pc_incr: 0
# addr:    10 | addr_in: 0 | DATA: 0000 | dout: 0000 | dout_in: x | a: 000a | g: 000a | f: z | F_in: 1 | zero: 0 | IR: 1110001100100011 | W: 0
# 
# luiz
# ,Res=0000000000000101
# T5 | Done: 1 | r0: 0001 | r1: 000a | r2: 0001 | r3: 0001 | r4: 0000 | r5: 0000 | r6: 0000 | buswires: 0005 | pc: 000b | pc_incr: 0
# addr:    10 | addr_in: 0 | DATA: 0000 | dout: 0000 | dout_in: x | a: 0001 | g: 0005 | f: z | F_in: 0 | zero: 0 | IR: 1110001100100011 | W: 0
# 
# T0 | Done: 0 | r0: 0001 | r1: 0005 | r2: 0001 | r3: 0001 | r4: 0000 | r5: 0000 | r6: 0000 | buswires: 000b | pc: 000b | pc_incr: 1
# addr:    10 | addr_in: 1 | DATA: 0000 | dout: 0000 | dout_in: x | a: 0005 | g: 0005 | f: z | F_in: 0 | zero: 0 | IR: 1110001100100011 | W: 0
# 
# T1 | Done: 0 | r0: 0001 | r1: 0005 | r2: 0001 | r3: 0001 | r4: 0000 | r5: 0000 | r6: 0000 | buswires: 000c | pc: 000c | pc_incr: 0
# addr:    11 | addr_in: 0 | DATA: 0000 | dout: 0000 | dout_in: x | a: 000b | g: 0005 | f: z | F_in: 0 | zero: 0 | IR: 1110001100100011 | W: 0
# 
# T2 | Done: 0 | r0: 0001 | r1: 0005 | r2: 0001 | r3: 0001 | r4: 0000 | r5: 0000 | r6: 0000 | buswires: 000c | pc: 000c | pc_incr: 0
# addr:    11 | addr_in: 0 | DATA: 0000 | dout: 0000 | dout_in: x | a: 000c | g: 0005 | f: z | F_in: 0 | zero: 0 | IR: 1110001100100011 | W: 0
# 
# data_in=0000000000001100 shift=1100 
# data_in=0000000000001100 shift=101 
# T3 | Done: 1 | r0: 0001 | r1: 0005 | r2: 0001 | r3: 0001 | r4: 0000 | r5: 0000 | r6: 0000 | buswires: 0005 | pc: 000c | pc_incr: 0
