simulation/modelsim/msim_transcript
# Reading C:/altera/13.0sp1/modelsim_ase/tcl/vsim/pref.tcl 
# do projetoProcessador_run_msim_rtl_verilog.do 
# if {[file exists rtl_work]} {
# 	vdel -lib rtl_work -all
# }
# vlib rtl_work
# vmap work rtl_work
# Copying C:\altera\13.0sp1\modelsim_ase\win32aloem/../modelsim.ini to modelsim.ini
# Modifying modelsim.ini
# ** Warning: Copied C:\altera\13.0sp1\modelsim_ase\win32aloem/../modelsim.ini to modelsim.ini.
#          Updated modelsim.ini.
# 
# vlog -vlog01compat -work work +incdir+C:/Users/Vitão/Desktop/Codes/LAOC2/projetoProcessador {C:/Users/Vitão/Desktop/Codes/LAOC2/projetoProcessador/projetoProcessador.v}
# Model Technology ModelSim ALTERA vlog 10.1d Compiler 2012.11 Nov  2 2012
# -- Compiling module projetoProcessador
# -- Compiling module dec3to8
# -- Compiling module pc_counter
# ** Warning: C:/Users/Vitão/Desktop/Codes/LAOC2/projetoProcessador/projetoProcessador.v(342): (vlog-2600) [RDGN] - Redundant digits in numeric literal.
# 
# -- Compiling module regInstr
# -- Compiling module regn
# -- Compiling module Alu
# 
# Top level modules:
# 	projetoProcessador
# vlog -vlog01compat -work work +incdir+C:/Users/Vitão/Desktop/Codes/LAOC2/projetoProcessador {C:/Users/Vitão/Desktop/Codes/LAOC2/projetoProcessador/memory.v}
# Model Technology ModelSim ALTERA vlog 10.1d Compiler 2012.11 Nov  2 2012
# -- Compiling module memory
# 
# Top level modules:
# 	memory
# vlog -vlog01compat -work work +incdir+C:/Users/Vitão/Desktop/Codes/LAOC2/projetoProcessador {C:/Users/Vitão/Desktop/Codes/LAOC2/projetoProcessador/instr_memory.v}
# Model Technology ModelSim ALTERA vlog 10.1d Compiler 2012.11 Nov  2 2012
# -- Compiling module instr_memory
# 
# Top level modules:
# 	instr_memory
# 
# vlog -vlog01compat -work work +incdir+C:/Users/Vitão/Desktop/Codes/LAOC2/projetoProcessador {C:/Users/Vitão/Desktop/Codes/LAOC2/projetoProcessador/projetoProcessador_tb.v}
# Model Technology ModelSim ALTERA vlog 10.1d Compiler 2012.11 Nov  2 2012
# -- Compiling module projetoProcessador_tb
# 
# Top level modules:
# 	projetoProcessador_tb
# 
# vsim -t 1ps -L altera_ver -L lpm_ver -L sgate_ver -L altera_mf_ver -L altera_lnsim_ver -L cycloneii_ver -L rtl_work -L work -voptargs="+acc"  projetoProcessador_tb
# vsim -L altera_ver -L lpm_ver -L sgate_ver -L altera_mf_ver -L altera_lnsim_ver -L cycloneii_ver -L rtl_work -L work -voptargs=\"+acc\" -t 1ps projetoProcessador_tb 
# Loading work.projetoProcessador_tb
# Loading work.projetoProcessador
# Loading work.dec3to8
# Loading work.instr_memory
# Loading altera_mf_ver.altsyncram
# Loading altera_mf_ver.ALTERA_DEVICE_FAMILIES
# Loading altera_mf_ver.ALTERA_MF_MEMORY_INITIALIZATION
# Loading work.memory
# Loading work.regn
# Loading work.pc_counter
# Loading work.regInstr
# Loading work.Alu
# ** Warning: (vsim-3015) C:/Users/Vitão/Desktop/Codes/LAOC2/projetoProcessador/projetoProcessador.v(276): [PCDPC] - Port size (1 or 1) does not match connection size (5) for port 'endInstr'. The port definition is at: C:/Users/Vitão/Desktop/Codes/LAOC2/projetoProcessador/projetoProcessador.v(346).
# 
#         Region: /projetoProcessador_tb/proc/registradorInstrucao
# 
# add wave *
# view structure
# .main_pane.structure.interior.cs.body.struct
# view signals
# .main_pane.objects.interior.cs.body.tree
# run -all
# Testa mv
# Time=50 clock=0 reset=1 run=0 done=0 Din=0 regDestino=xxxxxxxxxxxxxxxx tstepQ=0 instrucao=xxxx BusWires =0000000000000000 saidaROM=0000000000000000
# Time=100 clock=1 reset=1 run=0 done=0 Din=0 regDestino=xxxxxxxxxxxxxxxx tstepQ=0 instrucao=xxxx BusWires =0000000000000000 saidaROM=0000000000000000
# Time=150 clock=0 reset=1 run=1 done=0 Din=0 regDestino=xxxxxxxxxxxxxxxx tstepQ=0 instrucao=xxxx BusWires =0000000000000000 saidaROM=0000000000000000
# Time=200 clock=1 reset=1 run=1 done=0 Din=0 regDestino=xxxxxxxxxxxxxxxx tstepQ=1 instrucao=xxxx BusWires =0000000000000000 saidaROM=0001000000000100
# Time=250 clock=0 reset=1 run=1 done=0 Din=0 regDestino=xxxxxxxxxxxxxxxx tstepQ=1 instrucao=xxxx BusWires =0000000000000000 saidaROM=0001000000000100
# Time=300 clock=1 reset=1 run=1 done=0 Din=0 regDestino=xxxxxxxxxxxxxxxx tstepQ=10 instrucao=1004 BusWires =0000000000000000 saidaROM=0001000000000100
# Time=350 clock=0 reset=1 run=1 done=0 Din=0 regDestino=xxxxxxxxxxxxxxxx tstepQ=10 instrucao=1004 BusWires =0000000000000000 saidaROM=0001000000000100
# Time=400 clock=1 reset=1 run=1 done=1 Din=0 regDestino=xxxxxxxxxxxxxxxx tstepQ=11 instrucao=1004 BusWires =0000000000000100 saidaROM=0001000000000100
# Time=450 clock=0 reset=1 run=1 done=1 Din=0 regDestino=xxxxxxxxxxxxxxxx tstepQ=11 instrucao=1004 BusWires =0000000000000100 saidaROM=0001000000000100
# Time=500 clock=1 reset=1 run=1 done=0 Din=0 regDestino=0000000000000100 tstepQ=0 instrucao=1004 BusWires =0000000000000001 saidaROM=0001000000000100
# Testa load
# Time=600 clock=0 reset=1 run=0 done=0 Din=1 regDestino=xxxxxxxxxxxxxxxx tstepQ=0 instrucao=1004 BusWires =0000000000000001 saidaA=xxxxxxxxxxxxxxxx
# Time=650 clock=1 reset=1 run=0 done=0 Din=1 regDestino=xxxxxxxxxxxxxxxx tstepQ=0 instrucao=1004 BusWires =0000000000000001 saidaA=xxxxxxxxxxxxxxxx
# Time=700 clock=0 reset=1 run=1 done=0 Din=1 regDestino=xxxxxxxxxxxxxxxx tstepQ=0 instrucao=1004 BusWires =0000000000000001 saidaA=xxxxxxxxxxxxxxxx
# Time=750 clock=1 reset=1 run=1 done=0 Din=1 regDestino=xxxxxxxxxxxxxxxx tstepQ=1 instrucao=1004 BusWires =0000000000000001 saidaA=xxxxxxxxxxxxxxxx
# Time=800 clock=0 reset=1 run=1 done=0 Din=1 regDestino=xxxxxxxxxxxxxxxx tstepQ=1 instrucao=1004 BusWires =0000000000000001 saidaA=xxxxxxxxxxxxxxxx
# Time=850 clock=1 reset=1 run=1 done=0 Din=1 regDestino=xxxxxxxxxxxxxxxx tstepQ=10 instrucao=8200 BusWires =0000000000000001 saidaA=xxxxxxxxxxxxxxxx
# Time=900 clock=0 reset=1 run=1 done=0 Din=1 regDestino=xxxxxxxxxxxxxxxx tstepQ=10 instrucao=8200 BusWires =0000000000000001 saidaA=xxxxxxxxxxxxxxxx
# Time=950 clock=1 reset=1 run=1 done=0 Din=1 regDestino=xxxxxxxxxxxxxxxx tstepQ=11 instrucao=8200 BusWires =0000000000000010 saidaA=xxxxxxxxxxxxxxxx
# Time=1000 clock=0 reset=1 run=1 done=0 Din=1 regDestino=xxxxxxxxxxxxxxxx tstepQ=11 instrucao=8200 BusWires =0000000000000010 saidaA=xxxxxxxxxxxxxxxx
# Time=1050 clock=1 reset=1 run=1 done=0 Din=1 regDestino=xxxxxxxxxxxxxxxx tstepQ=100 instrucao=8200 BusWires =0000000000000010 saidaA=xxxxxxxxxxxxxxxx
# Time=1100 clock=0 reset=1 run=1 done=0 Din=1 regDestino=xxxxxxxxxxxxxxxx tstepQ=100 instrucao=8200 BusWires =0000000000000010 saidaA=xxxxxxxxxxxxxxxx
# Time=1150 clock=1 reset=1 run=1 done=1 Din=1 regDestino=xxxxxxxxxxxxxxxx tstepQ=101 instrucao=8200 BusWires =0000000000000101 saidaA=xxxxxxxxxxxxxxxx
# Time=1200 clock=0 reset=1 run=1 done=1 Din=1 regDestino=xxxxxxxxxxxxxxxx tstepQ=101 instrucao=8200 BusWires =0000000000000101 saidaA=xxxxxxxxxxxxxxxx
# Time=1250 clock=1 reset=1 run=1 done=0 Din=1 regDestino=0000000000000101 tstepQ=0 instrucao=8200 BusWires =0000000000000010 saidaA=xxxxxxxxxxxxxxxx
# Testa Add
# Time=1350 clock=0 reset=1 run=0 done=0 Din=10 regDestino=0000000000000101 tstepQ=0 instrucao=8200 BusWires =0000000000000010 saidaA=xxxxxxxxxxxxxxxx Select=0111 saidaALU=xxxxxxxxxxxxxxxx
# Time=1400 clock=1 reset=1 run=0 done=0 Din=10 regDestino=0000000000000101 tstepQ=0 instrucao=8200 BusWires =0000000000000010 saidaA=xxxxxxxxxxxxxxxx Select=0111 saidaALU=xxxxxxxxxxxxxxxx
# Time=1450 clock=0 reset=1 run=1 done=0 Din=10 regDestino=0000000000000101 tstepQ=0 instrucao=8200 BusWires =0000000000000010 saidaA=xxxxxxxxxxxxxxxx Select=0111 saidaALU=xxxxxxxxxxxxxxxx
# Time=1500 clock=1 reset=1 run=1 done=0 Din=10 regDestino=0000000000000101 tstepQ=1 instrucao=8200 BusWires =0000000000000010 saidaA=xxxxxxxxxxxxxxxx Select=0111 saidaALU=xxxxxxxxxxxxxxxx
# Time=1550 clock=0 reset=1 run=1 done=0 Din=10 regDestino=0000000000000101 tstepQ=1 instrucao=8200 BusWires =0000000000000010 saidaA=xxxxxxxxxxxxxxxx Select=0111 saidaALU=xxxxxxxxxxxxxxxx
# Time=1600 clock=1 reset=1 run=1 done=0 Din=10 regDestino=0000000000000101 tstepQ=10 instrucao=5209 BusWires =0000000000000010 saidaA=xxxxxxxxxxxxxxxx Select=0111 saidaALU=xxxxxxxxxxxxxxxx
# Time=1650 clock=0 reset=1 run=1 done=0 Din=10 regDestino=0000000000000101 tstepQ=10 instrucao=5209 BusWires =0000000000000010 saidaA=xxxxxxxxxxxxxxxx Select=0111 saidaALU=xxxxxxxxxxxxxxxx
# Time=1700 clock=1 reset=1 run=1 done=0 Din=10 regDestino=0000000000000101 tstepQ=11 instrucao=5209 BusWires =0000000000000101 saidaA=xxxxxxxxxxxxxxxx Select=0001 saidaALU=xxxxxxxxxxxxxxxx
# Time=1750 clock=0 reset=1 run=1 done=0 Din=10 regDestino=0000000000000101 tstepQ=11 instrucao=5209 BusWires =0000000000000101 saidaA=xxxxxxxxxxxxxxxx Select=0001 saidaALU=xxxxxxxxxxxxxxxx
# Time=1800 clock=1 reset=1 run=1 done=0 Din=10 regDestino=0000000000000101 tstepQ=100 instrucao=5209 BusWires =0000000000001001 saidaA=0000000000000101 Select=1001 saidaALU=0000000000001110
# Time=1850 clock=0 reset=1 run=1 done=0 Din=10 regDestino=0000000000000101 tstepQ=100 instrucao=5209 BusWires =0000000000001001 saidaA=0000000000000101 Select=1001 saidaALU=0000000000001110
# Time=1900 clock=1 reset=1 run=1 done=1 Din=10 regDestino=0000000000000101 tstepQ=101 instrucao=5209 BusWires =0000000000001110 saidaA=0000000000000101 Select=1000 saidaALU=0000000000010011
# Time=1950 clock=0 reset=1 run=1 done=1 Din=10 regDestino=0000000000000101 tstepQ=101 instrucao=5209 BusWires =0000000000001110 saidaA=0000000000000101 Select=1000 saidaALU=0000000000010011
# Time=2000 clock=1 reset=1 run=1 done=0 Din=10 regDestino=0000000000001110 tstepQ=0 instrucao=5209 BusWires =0000000000000011 saidaA=0000000000000101 Select=0111 saidaALU=0000000000001000
# Testa store
# Time=2100 clock=0 reset=1 run=0 done=0 Din=11 regDestino=0000000000001110 tstepQ=0 instrucao=5209 BusWires =0000000000000011 saidaA=0000000000000101 Select=0111 saidaALU=0000000000001000
# Time=2150 clock=1 reset=1 run=0 done=0 Din=11 regDestino=0000000000001110 tstepQ=0 instrucao=5209 BusWires =0000000000000011 saidaA=0000000000000101 Select=0111 saidaALU=0000000000001000
# Time=2200 clock=0 reset=1 run=1 done=0 Din=11 regDestino=0000000000001110 tstepQ=0 instrucao=5209 BusWires =0000000000000011 saidaA=0000000000000101 Select=0111 saidaALU=0000000000001000
# Time=2250 clock=1 reset=1 run=1 done=0 Din=11 regDestino=0000000000001110 tstepQ=1 instrucao=5209 BusWires =0000000000000011 saidaA=0000000000000101 Select=0111 saidaALU=0000000000001000
# Time=2300 clock=0 reset=1 run=1 done=0 Din=11 regDestino=0000000000001110 tstepQ=1 instrucao=5209 BusWires =0000000000000011 saidaA=0000000000000101 Select=0111 saidaALU=0000000000001000
# Time=2350 clock=1 reset=1 run=1 done=0 Din=11 regDestino=0000000000001110 tstepQ=10 instrucao=a001 BusWires =0000000000000011 saidaA=0000000000000101 Select=0111 saidaALU=0000000000001000
# Time=2400 clock=0 reset=1 run=1 done=0 Din=11 regDestino=0000000000001110 tstepQ=10 instrucao=a001 BusWires =0000000000000011 saidaA=0000000000000101 Select=0111 saidaALU=0000000000001000
# Time=2450 clock=1 reset=1 run=1 done=0 Din=11 regDestino=0000000000001110 tstepQ=11 instrucao=a001 BusWires =0000000000000100 saidaA=0000000000000101 Select=0111 saidaALU=0000000000001001
# Time=2500 clock=0 reset=1 run=1 done=0 Din=11 regDestino=0000000000001110 tstepQ=11 instrucao=a001 BusWires =0000000000000100 saidaA=0000000000000101 Select=0111 saidaALU=0000000000001001
# Time=2550 clock=1 reset=1 run=1 done=0 Din=11 regDestino=0000000000001110 tstepQ=100 instrucao=a001 BusWires =0000000000000100 saidaA=0000000000000101 Select=0000 saidaALU=0000000000001001
# Time=2600 clock=0 reset=1 run=1 done=0 Din=11 regDestino=0000000000001110 tstepQ=100 instrucao=a001 BusWires =0000000000000100 saidaA=0000000000000101 Select=0000 saidaALU=0000000000001001
# Time=2650 clock=1 reset=1 run=1 done=0 Din=11 regDestino=0000000000001110 tstepQ=101 instrucao=a001 BusWires =0000000000000100 saidaA=0000000000000101 Select=0000 saidaALU=0000000000001001
# Testa load
# Time=2750 clock=0 reset=0 run=0 done=0 Din=100 regDestino=0000000000000100 tstepQ=0 instrucao=a001 BusWires =0000000000000100 saidaA=0000000000000101 Select=0111 saidaALU=0000000000001001
# Time=2800 clock=1 reset=0 run=0 done=0 Din=100 regDestino=0000000000000100 tstepQ=0 instrucao=a001 BusWires =0000000000000100 saidaA=0000000000000101 Select=0111 saidaALU=0000000000001001
# Time=2850 clock=0 reset=0 run=1 done=0 Din=100 regDestino=0000000000000100 tstepQ=0 instrucao=a001 BusWires =0000000000000100 saidaA=0000000000000101 Select=0111 saidaALU=0000000000001001
# Time=2900 clock=1 reset=0 run=1 done=0 Din=100 regDestino=0000000000000100 tstepQ=0 instrucao=a001 BusWires =0000000000000100 saidaA=0000000000000101 Select=0111 saidaALU=0000000000001001
# Time=2950 clock=0 reset=0 run=1 done=0 Din=100 regDestino=0000000000000100 tstepQ=0 instrucao=a001 BusWires =0000000000000100 saidaA=0000000000000101 Select=0111 saidaALU=0000000000001001
# Time=3000 clock=1 reset=0 run=1 done=0 Din=100 regDestino=0000000000000100 tstepQ=0 instrucao=a001 BusWires =0000000000000100 saidaA=0000000000000101 Select=0111 saidaALU=0000000000001001
# Time=3050 clock=0 reset=0 run=1 done=0 Din=100 regDestino=0000000000000100 tstepQ=0 instrucao=a001 BusWires =0000000000000100 saidaA=0000000000000101 Select=0111 saidaALU=0000000000001001
# Time=3100 clock=1 reset=0 run=1 done=0 Din=100 regDestino=0000000000000100 tstepQ=0 instrucao=a001 BusWires =0000000000000100 saidaA=0000000000000101 Select=0111 saidaALU=0000000000001001
# Time=3150 clock=0 reset=0 run=1 done=0 Din=100 regDestino=0000000000000100 tstepQ=0 instrucao=a001 BusWires =0000000000000100 saidaA=0000000000000101 Select=0111 saidaALU=0000000000001001
# Time=3200 clock=1 reset=0 run=1 done=0 Din=100 regDestino=0000000000000100 tstepQ=0 instrucao=a001 BusWires =0000000000000100 saidaA=0000000000000101 Select=0111 saidaALU=0000000000001001
# Time=3250 clock=0 reset=0 run=1 done=0 Din=100 regDestino=0000000000000100 tstepQ=0 instrucao=a001 BusWires =0000000000000100 saidaA=0000000000000101 Select=0111 saidaALU=0000000000001001
# Time=3300 clock=1 reset=0 run=1 done=0 Din=100 regDestino=0000000000000100 tstepQ=0 instrucao=a001 BusWires =0000000000000100 saidaA=0000000000000101 Select=0111 saidaALU=0000000000001001
# Time=3350 clock=0 reset=0 run=1 done=0 Din=100 regDestino=0000000000000100 tstepQ=0 instrucao=a001 BusWires =0000000000000100 saidaA=0000000000000101 Select=0111 saidaALU=0000000000001001
# Time=3400 clock=1 reset=0 run=1 done=0 Din=100 regDestino=0000000000000100 tstepQ=0 instrucao=a001 BusWires =0000000000000100 saidaA=0000000000000101 Select=0111 saidaALU=0000000000001001
# A time value could not be extracted from the current line
# A time value could not be extracted from the current line
# A time value could not be extracted from the current line
# A time value could not be extracted from the current line
